****************************************************** 
* guineapig++ Version 1.2.2
* Program written by Daniel Schulte at DESY and CERN 
* object oriented by Guy Le Meur at LAL-Orsay 
* contributions from C. Rimbault at LAL-Orsay 
* B. Dalena, J. Esberg and J. Snuverink at CERN
*
* Compiled with FFTW:  FFTW3 
**************************************************** 

                                         
 *********************************************************************** 
 -------------  beam parameter 1 ------------ 
             
 energy : 125 GeV ; particles : 6.25e+09
  sigma_x  : 210.12 nm ;  sigma_y : 3.13228 nm ; sigma_z : 100 micrometers 
 emitt_x : 0.9 emitt_y : 0.02  (mm.mrad) 
 beta_x : 12000 beta_y : 120 (micrometers) 
 offset_x : 5 nm ; offset_y : 0.2 nm ; offset_z : 0 micrometers 
 waist_x : 0 waist_y : 0 (micrometers) 
 angle_x : 0 angle_y : 0 angle_phi : 0 (radians) 
 type of distribution charge :  dist_x : 0 dist_z : 0
 initial polarization (ONLY FOR bmt_precession = 1 and internally generated beam) : polar_x = 0 polar_y = 0 polar_z = -0.8
                                         
 *********************************************************************** 
 -------------  beam parameter 2 ------------ 
             
 energy : 125 GeV ; particles : 6.25e+09
  sigma_x  : 210.12 nm ;  sigma_y : 3.13228 nm ; sigma_z : 100 micrometers 
 emitt_x : 0.9 emitt_y : 0.02  (mm.mrad) 
 beta_x : 12000 beta_y : 120 (micrometers) 
 offset_x : -5 nm ; offset_y : -0.2 nm ; offset_z : -0 micrometers 
 waist_x : 0 waist_y : 0 (micrometers) 
 angle_x : 0 angle_y : 0 angle_phi : 0 (radians) 
 type of distribution charge :  dist_x : 0 dist_z : 0
 initial polarization (ONLY FOR bmt_precession = 1 and internally generated beam) : polar_x = 0 polar_y = 0 polar_z = 0
                                         
 *********************************************************************** 
 ------------- SWITCHES :  ------------ 
             
charge_sign = -1
bmt_precession = 1
ST_spin_flip = 0
do_bds_spin_rotation = 0
automatic_grid_sizing = 0
integration_method = 2 force_symmetric = 0
rndm_load = 0rndm_save = 1 rndm_seed = 495043
do_photons.1 = 1 do_photons.2 = 1
write_photons = 1
do_comp = 0 do_prod = 0
electron_ratio = 1
compt_x_min = 1 compt_emax = 100 GeV ; compt_scale = 1
do_lumi = 1num_lumi = 100000 lumi_p = 1e-29
do_cross = 0 do_isr = 0 do_espread = 1
photon_ratio = 1
do_hadrons = 1 store_hadrons = 0 hadron_ratio = 100000
do_jets = 1 store_jets = 0
do_pairs = 1 load_events = 0
track_pairs = 1 pair_step = 1
store_pairs = 1
bhabha_scal = 1e-29 bhabha_ecmload = 500 GeV 
do_muons = 0 track_muons = 0 store_muons = 0
muon_ratio = 1 muon_scale = 1 muon_ecut = 0.105
do_coherent = 1
do_trident = 0
emin = 0
grids = 7
pair_ecut = 0 GeV 
pair_ratio = 1
bhabha_ratio = 1
pair_q2 = 1
beam_pair = 0
jet_ratio = 100000
jet_ptmin = 2
jet_pythia = 0
jet_log = 1
beam_size = 1 beam_size_scale = 1 ext_field = 0
espread.1 = 0.003 which_espread.1 = 1 espread.2 = 0.003 which_espread.2 = 1
f_rep = 120 n_b = 133
                                         
 *********************************************************************** 
 ------------- grid parameters ------------ 
             
n_x = 128 n_y = 640
n_z = 25 n_t = 1
n_m.1 = 100000 n_m.2 = 100000
cut_x = 2521.44 nm ; cut_y = 200.466 nm ; cut_z = 310 micrometers 

 ...................................................... 
 relative amount of interacting particles that were outside the grid during one time step : 
beam 1 : miss = 0  beam 2 : miss = 0
 number of interacting part. that were outside the grid during one time step : 
out.1=0;out.2=0;
                                         
 *********************************************************************** 
 ------------- beam1 ------------ 
             
 ---------- particle beam : 
 total number of coherent particles is 0 with 0 GeV 
 number of tracked macroparticles : 99791
average energy loss of the beam particles (GeV) : de = 4.1993
 ---photon statistics : 
 initial : 
 initial average photon energy (GeV) phot-e1 : 3.09755
 initial number of phot. per tracked macropart.1 : 1.35568
 final : 
 final average photon energy (GeV) phot-e1 : 3.09755
 final number of phot. per tracked macropart.1 : 1.35568

phot-e1=3.09755;n_phot1=1.35568;
de1=4.1993;
                                         
 *********************************************************************** 
 ------------- beam2 ------------ 
             
 ---------- particle beam : 
 total number of coherent particles is 0 with 0 GeV 
 number of tracked macroparticles : 99805
average energy loss of the beam particles (GeV) : de = 4.14346
 ---photon statistics : 
 initial : 
 initial average photon energy (GeV) phot-e2 : 3.0844
 initial number of phot. per tracked macropart.2 : 1.34336
 final : 
 final average photon energy (GeV) phot-e2 : 3.0844
 final number of phot. per tracked macropart.2 : 1.34336

phot-e2=3.0844;n_phot2=1.34336;
de2=4.14346;
                                         
 *********************************************************************** 
 ------------- coherent particles results ------------ 
             
coherent.sum=0;
coherent.sumeng=0;
coherent.upsmax=1.1142e-06;
coherent.probmax=2.5209e-12;
coherent.count=0;
coherent.total_energy=0;
                                         
 *********************************************************************** 
 -------------  results for pairs  ------------ 
             
nb of pairs per bunch crossing : n_pairs = 44094 total energy e_pairs = 54561.7 GeV 

 Breit-Wheeler process : n_BW = 1093.87 e_BW = 623.514 GeV 
 Bethe-Heitler process : n_BH = 25682.8 e_BH = 39681.8 GeV 
 Landau-Lifschitz process : n_LL = 17439.6 e_LL = 15105.8 GeV 

 total nb (and total energy, in GeV) of the particles due to the 3 processes : 
n.1 = 22150.3 b.1 = 27866.7
n.2 = 22065.9 b.2 = 27544.5

 nb of particles (and energy in GeV) due to thr 3 previous processes with a transverse momentum of more than 20 MeV and an angle with respect to the beam axis of more than 150 mrad : 
n_pt=13.9069;e_pt=1.54748;
n_pairs=44094;e_pairs=54561.7;
                                         
 *********************************************************************** 
 ------------- jets results ------------ 
             
 nb of minijet evts per bx due to the direct process : jets0 = 0.00131969
nb of minijet evts per bx due to the once resolved process : jets1 = 0.000981429
nb of minijet evts per bx due to the twice resolved process : jets2 = 0.00249974
                                         
 *********************************************************************** 
 ------------- general results ------------ 
             
lumi_fine = 7.63676e+33 m**(-2) (from charge densities) 
lumi_ee = 7.70759e+33 m**(-2) (from beam particles collisions)
lumi_ee_high = 7.70759e+33 1/m2 (per bunch cross. above energy ecm_min)
lumi_pp = 3.85379e+33 m**(-2) 
lumi_eg = 3.4724e+33 m**(-2) (e - gamma) 
lumi_ge = 3.49204e+33 m**(-2) ( gamma - e) 
lumi_gg = 1.98349e+33 m**(-2) (gamma - gamma) 
lumi_gg_high = 1.98349e+33 1/m2 (gamma - gamma, with c.o.m energy more than gg_cut) 
lumi[0][0] = 0
lumi[0][1] = 1.23013e+38
lumi[0][2] = 5.54195e+37
lumi[1][0] = 0
lumi[1][1] = 0
lumi[1][2] = 0
lumi[2][0] = 0
lumi[2][1] = 5.57329e+37
lumi[2][2] = 3.16566e+37
upsmax= 0.274969 (maximal value of the beamstrahlung paramater that occured) 
E_cm = 246.642 E_cm_var = 7.1502
 ............................................... 
 average and RMS angles (x or y) of the particles of each beam after the interaction (microradians) : 
bpm_vx.1=-15.9035;bpm_sig_vx.1=410.325;
bpm_vy.1=-25.9108;bpm_sig_vy.1=74.955;
bpm_vx.2=15.8078;bpm_sig_vx.2=405.879;
bpm_vy.2=25.7938;bpm_sig_vy.2=71.8028;
 average and RMS angles (x or y) including coherent particles of each beam after the interaction (microradians) : 
bpm_vx_coh.1=-15.9035;
bpm_vy_coh.1=-25.9108;
bpm_vx_coh.2=15.8078;
bpm_vy_coh.2=25.7938;
 ............................................... 
 minimal photon-photon center of mass energies for hadronic events (GeV) : 
hadron_cut.1=2;hadron_cut.2=5;hadron_cut.3=10;
 nb of hadronic events per bunch crossing due to the virtual photons in ee collisions : 
hadrons_ee.1=0.0240851;hadrons_ee.2=0.0131634;hadrons_ee.3=0.00789593;
 nb of hadronic evts per bx due to e-gamma collisions 
hadrons_eg.1=0.0210557;hadrons_eg.2=0.0113335;hadrons_eg.3=0.0062513;
 .. due to gamma-e collisions : 
hadrons_ge.1=0.021263;hadrons_ge.2=0.0114489;hadrons_ge.3=0.006304;
 ... due to gamma-gamma collisions : 
hadrons_gg.1=0.0263169;hadrons_gg.2=0.0133266;hadrons_gg.3=0.00600541;
 ... due to all types of collisions : 
hadrons_sum.1=0.0927208;hadrons_sum.2=0.0492725;hadrons_sum.3=0.0264566;
 ............................................... 

lumi_ee=7.70759e+33;
lumi_ee_high=7.70759e+33;
step   lumi total   lumi peak 
1  6.48911e+27  6.48911e+27
2  2.64312e+28  2.64312e+28
3  7.59701e+28  7.59701e+28
4  1.90083e+29  1.90083e+29
5  4.30339e+29  4.30339e+29
6  8.74605e+29  8.74605e+29
7  1.73038e+30  1.73038e+30
8  3.20752e+30  3.20752e+30
9  5.75552e+30  5.75552e+30
10  9.86265e+30  9.86265e+30
11  1.62744e+31  1.62744e+31
12  2.63157e+31  2.63157e+31
13  4.1052e+31  4.1052e+31
14  6.31522e+31  6.31522e+31
15  9.64247e+31  9.64247e+31
16  1.4518e+32  1.4518e+32
17  2.11435e+32  2.11435e+32
18  2.7714e+32  2.7714e+32
19  3.32475e+32  3.32475e+32
20  3.95184e+32  3.95184e+32
21  4.74977e+32  4.74977e+32
22  5.50778e+32  5.50778e+32
23  5.94243e+32  5.94243e+32
24  5.992e+32  5.992e+32
25  5.90279e+32  5.90279e+32
26  5.80741e+32  5.80741e+32
27  5.48998e+32  5.48998e+32
28  4.92652e+32  4.92652e+32
29  4.21173e+32  4.21173e+32
30  3.46634e+32  3.46634e+32
31  2.72368e+32  2.72368e+32
32  2.05791e+32  2.05791e+32
33  1.48999e+32  1.48999e+32
34  9.93432e+31  9.93432e+31
35  6.49669e+31  6.49669e+31
36  3.97645e+31  3.97645e+31
37  2.30577e+31  2.30577e+31
38  1.31626e+31  1.31626e+31
39  6.80264e+30  6.80264e+30
40  3.68423e+30  3.68423e+30
41  1.85209e+30  1.85209e+30
42  8.13354e+29  8.13354e+29
43  3.15909e+29  3.15909e+29
44  1.24718e+29  1.24718e+29
45  4.58986e+28  4.58986e+28
46  1.59854e+28  1.59854e+28
47  7.12219e+27  7.12219e+27
48  1.42444e+27  1.42444e+27
49  4.74813e+26  4.74813e+26
                                         
 *********************************************************************** 
 ------------- other information  ------------ 
             
 initial pairs are saved on file : pairs0.dat
 pairs are saved on file : pairs.dat
 jets are saved on file : minijet.dat
99791 particles are saved on file : beam1.dat
99805 particles are saved on file : beam2.dat
 coherent particles of beam1 are saved on file : coh1.dat
 coherent particles of beam2 are saved on file : coh2.dat
 trident particles of beam1 are saved on file : tri1.dat
 trident particles of beam2 are saved on file : tri2.dat
