****************************************************** 
* guineapig++ Version 1.2.2
* Program written by Daniel Schulte at DESY and CERN 
* object oriented by Guy Le Meur at LAL-Orsay 
* contributions from C. Rimbault at LAL-Orsay 
* B. Dalena, J. Esberg and J. Snuverink at CERN
*
* Compiled with FFTW:  FFTW3 
**************************************************** 

                                         
 *********************************************************************** 
 -------------  beam parameter 1 ------------ 
             
 energy : 125 GeV ; particles : 6.25e+09
  sigma_x  : 210.12 nm ;  sigma_y : 3.13228 nm ; sigma_z : 100 micrometers 
 emitt_x : 0.9 emitt_y : 0.02  (mm.mrad) 
 beta_x : 12000 beta_y : 120 (micrometers) 
 offset_x : 0 nm ; offset_y : 0 nm ; offset_z : 0 micrometers 
 waist_x : 0 waist_y : 0 (micrometers) 
 angle_x : 0 angle_y : 0 angle_phi : 0 (radians) 
 type of distribution charge :  dist_x : 0 dist_z : 0
 initial polarization (ONLY FOR bmt_precession = 1 and internally generated beam) : polar_x = 0 polar_y = 0 polar_z = -0.8
                                         
 *********************************************************************** 
 -------------  beam parameter 2 ------------ 
             
 energy : 125 GeV ; particles : 6.25e+09
  sigma_x  : 210.12 nm ;  sigma_y : 3.13228 nm ; sigma_z : 100 micrometers 
 emitt_x : 0.9 emitt_y : 0.02  (mm.mrad) 
 beta_x : 12000 beta_y : 120 (micrometers) 
 offset_x : -0 nm ; offset_y : -0 nm ; offset_z : -0 micrometers 
 waist_x : 0 waist_y : 0 (micrometers) 
 angle_x : 0 angle_y : 0 angle_phi : 0 (radians) 
 type of distribution charge :  dist_x : 0 dist_z : 0
 initial polarization (ONLY FOR bmt_precession = 1 and internally generated beam) : polar_x = 0 polar_y = 0 polar_z = 0
                                         
 *********************************************************************** 
 ------------- SWITCHES :  ------------ 
             
charge_sign = -1
bmt_precession = 1
ST_spin_flip = 0
do_bds_spin_rotation = 0
automatic_grid_sizing = 0
integration_method = 2 force_symmetric = 0
rndm_load = 0rndm_save = 1 rndm_seed = 111111
do_photons.1 = 1 do_photons.2 = 1
write_photons = 1
do_comp = 0 do_prod = 0
electron_ratio = 1
compt_x_min = 1 compt_emax = 100 GeV ; compt_scale = 1
do_lumi = 1num_lumi = 100000 lumi_p = 1e-29
do_cross = 0 do_isr = 0 do_espread = 1
photon_ratio = 1
do_hadrons = 1 store_hadrons = 0 hadron_ratio = 100000
do_jets = 1 store_jets = 0
do_pairs = 1 load_events = 0
track_pairs = 1 pair_step = 1
store_pairs = 1
bhabha_scal = 1e-29 bhabha_ecmload = 500 GeV 
do_muons = 0 track_muons = 0 store_muons = 0
muon_ratio = 1 muon_scale = 1 muon_ecut = 0.105
do_coherent = 1
do_trident = 0
emin = 0
grids = 7
pair_ecut = 0 GeV 
pair_ratio = 1
bhabha_ratio = 1
pair_q2 = 1
beam_pair = 0
jet_ratio = 100000
jet_ptmin = 2
jet_pythia = 0
jet_log = 1
beam_size = 1 beam_size_scale = 1 ext_field = 0
espread.1 = 0.001 which_espread.1 = 3 espread.2 = 0.001 which_espread.2 = 3
f_rep = 120 n_b = 133
                                         
 *********************************************************************** 
 ------------- grid parameters ------------ 
             
n_x = 128 n_y = 640
n_z = 25 n_t = 1
n_m.1 = 100000 n_m.2 = 100000
cut_x = 2521.44 nm ; cut_y = 200.466 nm ; cut_z = 310 micrometers 

 ...................................................... 
 relative amount of interacting particles that were outside the grid during one time step : 
beam 1 : miss = 0  beam 2 : miss = 0
 number of interacting part. that were outside the grid during one time step : 
out.1=0;out.2=0;
                                         
 *********************************************************************** 
 ------------- beam1 ------------ 
             
 ---------- particle beam : 
 total number of coherent particles is 0 with 0 GeV 
 number of tracked macroparticles : 99791
average energy loss of the beam particles (GeV) : de = 3.99899
 ---photon statistics : 
 initial : 
 initial average photon energy (GeV) phot-e1 : 3.04854
 initial number of phot. per tracked macropart.1 : 1.31177
 final : 
 final average photon energy (GeV) phot-e1 : 3.04854
 final number of phot. per tracked macropart.1 : 1.31177

phot-e1=3.04854;n_phot1=1.31177;
de1=3.99899;
                                         
 *********************************************************************** 
 ------------- beam2 ------------ 
             
 ---------- particle beam : 
 total number of coherent particles is 0 with 0 GeV 
 number of tracked macroparticles : 99800
average energy loss of the beam particles (GeV) : de = 4.00543
 ---photon statistics : 
 initial : 
 initial average photon energy (GeV) phot-e2 : 3.05296
 initial number of phot. per tracked macropart.2 : 1.31198
 final : 
 final average photon energy (GeV) phot-e2 : 3.05296
 final number of phot. per tracked macropart.2 : 1.31198

phot-e2=3.05296;n_phot2=1.31198;
de2=4.00543;
                                         
 *********************************************************************** 
 ------------- coherent particles results ------------ 
             
coherent.sum=0;
coherent.sumeng=0;
coherent.upsmax=1.05798e-06;
coherent.probmax=3.46426e-13;
coherent.count=0;
coherent.total_energy=0;
                                         
 *********************************************************************** 
 -------------  results for pairs  ------------ 
             
nb of pairs per bunch crossing : n_pairs = 45936 total energy e_pairs = 57188.3 GeV 

 Breit-Wheeler process : n_BW = 1146.45 e_BW = 624.611 GeV 
 Bethe-Heitler process : n_BH = 26581.9 e_BH = 40767.4 GeV 
 Landau-Lifschitz process : n_LL = 18175.9 e_LL = 15752.8 GeV 

 total nb (and total energy, in GeV) of the particles due to the 3 processes : 
n.1 = 22942 b.1 = 28472.9
n.2 = 22962.2 b.2 = 28671.9

 nb of particles (and energy in GeV) due to thr 3 previous processes with a transverse momentum of more than 20 MeV and an angle with respect to the beam axis of more than 150 mrad : 
n_pt=14.4164;e_pt=1.60139;
n_pairs=45936;e_pairs=57188.3;
                                         
 *********************************************************************** 
 ------------- jets results ------------ 
             
 nb of minijet evts per bx due to the direct process : jets0 = 0.00136063
nb of minijet evts per bx due to the once resolved process : jets1 = 0.00101021
nb of minijet evts per bx due to the twice resolved process : jets2 = 0.00257819
                                         
 *********************************************************************** 
 ------------- general results ------------ 
             
lumi_fine = 7.98552e+33 m**(-2) (from charge densities) 
lumi_ee = 8.06479e+33 m**(-2) (from beam particles collisions)
lumi_ee_high = 8.06479e+33 1/m2 (per bunch cross. above energy ecm_min)
lumi_pp = 4.03239e+33 m**(-2) 
lumi_eg = 3.62093e+33 m**(-2) (e - gamma) 
lumi_ge = 3.60055e+33 m**(-2) ( gamma - e) 
lumi_gg = 2.02953e+33 m**(-2) (gamma - gamma) 
lumi_gg_high = 2.02953e+33 1/m2 (gamma - gamma, with c.o.m energy more than gg_cut) 
lumi[0][0] = 0
lumi[0][1] = 1.28714e+38
lumi[0][2] = 5.779e+37
lumi[1][0] = 0
lumi[1][1] = 0
lumi[1][2] = 0
lumi[2][0] = 0
lumi[2][1] = 5.74647e+37
lumi[2][2] = 3.23914e+37
upsmax= 0.24786 (maximal value of the beamstrahlung paramater that occured) 
E_cm = 246.561 E_cm_var = 7.24096
 ............................................... 
 average and RMS angles (x or y) of the particles of each beam after the interaction (microradians) : 
bpm_vx.1=3.88115;bpm_sig_vx.1=408.235;
bpm_vy.1=-1.88842;bpm_sig_vy.1=50.083;
bpm_vx.2=-3.72037;bpm_sig_vx.2=409.112;
bpm_vy.2=1.91666;bpm_sig_vy.2=49.8099;
 average and RMS angles (x or y) including coherent particles of each beam after the interaction (microradians) : 
bpm_vx_coh.1=3.88115;
bpm_vy_coh.1=-1.88842;
bpm_vx_coh.2=-3.72037;
bpm_vy_coh.2=1.91666;
 ............................................... 
 minimal photon-photon center of mass energies for hadronic events (GeV) : 
hadron_cut.1=2;hadron_cut.2=5;hadron_cut.3=10;
 nb of hadronic events per bunch crossing due to the virtual photons in ee collisions : 
hadrons_ee.1=0.0249848;hadrons_ee.2=0.0136571;hadrons_ee.3=0.00819508;
 nb of hadronic evts per bx due to e-gamma collisions 
hadrons_eg.1=0.0218623;hadrons_eg.2=0.0117678;hadrons_eg.3=0.00648724;
 .. due to gamma-e collisions : 
hadrons_ge.1=0.021767;hadrons_ge.2=0.0117117;hadrons_ge.3=0.00645071;
 ... due to gamma-gamma collisions : 
hadrons_gg.1=0.0266936;hadrons_gg.2=0.0134326;hadrons_gg.3=0.00600925;
 ... due to all types of collisions : 
hadrons_sum.1=0.0953077;hadrons_sum.2=0.0505692;hadrons_sum.3=0.0271423;
 ............................................... 

lumi_ee=8.06479e+33;
lumi_ee_high=8.06479e+33;
step   lumi total   lumi peak 
1  6.17257e+27  6.17257e+27
2  2.75391e+28  2.75391e+28
3  8.1193e+28  8.1193e+28
4  2.13508e+29  2.13508e+29
5  4.56612e+29  4.56612e+29
6  9.26993e+29  9.26993e+29
7  1.78561e+30  1.78561e+30
8  3.32211e+30  3.32211e+30
9  5.87185e+30  5.87185e+30
10  1.0035e+31  1.0035e+31
11  1.65241e+31  1.65241e+31
12  2.63974e+31  2.63974e+31
13  4.12956e+31  4.12956e+31
14  6.30705e+31  6.30705e+31
15  9.62153e+31  9.62153e+31
16  1.44705e+32  1.44705e+32
17  2.09253e+32  2.09253e+32
18  2.75108e+32  2.75108e+32
19  3.32688e+32  3.32688e+32
20  3.95674e+32  3.95674e+32
21  4.74087e+32  4.74087e+32
22  5.46798e+32  5.46798e+32
23  5.87839e+32  5.87839e+32
24  5.94588e+32  5.94588e+32
25  5.92062e+32  5.92062e+32
26  5.92162e+32  5.92162e+32
27  5.61307e+32  5.61307e+32
28  5.03538e+32  5.03538e+32
29  4.39706e+32  4.39706e+32
30  3.74355e+32  3.74355e+32
31  3.05252e+32  3.05252e+32
32  2.43414e+32  2.43414e+32
33  1.88001e+32  1.88001e+32
34  1.40413e+32  1.40413e+32
35  1.0039e+32  1.0039e+32
36  7.03461e+31  7.03461e+31
37  4.76302e+31  4.76302e+31
38  3.12338e+31  3.12338e+31
39  1.99228e+31  1.99228e+31
40  1.22655e+31  1.22655e+31
41  7.40534e+30  7.40534e+30
42  4.15335e+30  4.15335e+30
43  2.26818e+30  2.26818e+30
44  1.12594e+30  1.12594e+30
45  5.18654e+29  5.18654e+29
46  2.23637e+29  2.23637e+29
47  8.78404e+28  8.78404e+28
48  2.89636e+28  2.89636e+28
49  7.43873e+27  7.43873e+27
                                         
 *********************************************************************** 
 ------------- other information  ------------ 
             
 initial pairs are saved on file : pairs0.dat
 pairs are saved on file : pairs.dat
 jets are saved on file : minijet.dat
99791 particles are saved on file : beam1.dat
99800 particles are saved on file : beam2.dat
 coherent particles of beam1 are saved on file : coh1.dat
 coherent particles of beam2 are saved on file : coh2.dat
 trident particles of beam1 are saved on file : tri1.dat
 trident particles of beam2 are saved on file : tri2.dat
