****************************************************** 
* guineapig++ Version 1.2.2
* Program written by Daniel Schulte at DESY and CERN 
* object oriented by Guy Le Meur at LAL-Orsay 
* contributions from C. Rimbault at LAL-Orsay 
* B. Dalena, J. Esberg and J. Snuverink at CERN
*
* Compiled with FFTW:  FFTW3 
**************************************************** 

                                         
 *********************************************************************** 
 -------------  beam parameter 1 ------------ 
             
 energy : 125 GeV ; particles : 6.25e+09
  sigma_x  : 210.12 nm ;  sigma_y : 3.13228 nm ; sigma_z : 100 micrometers 
 emitt_x : 0.9 emitt_y : 0.02  (mm.mrad) 
 beta_x : 12000 beta_y : 120 (micrometers) 
 offset_x : 5 nm ; offset_y : 0.2 nm ; offset_z : 0 micrometers 
 waist_x : 0 waist_y : 0 (micrometers) 
 angle_x : 0 angle_y : 0 angle_phi : 0 (radians) 
 type of distribution charge :  dist_x : 0 dist_z : 0
 initial polarization (ONLY FOR bmt_precession = 1 and internally generated beam) : polar_x = 0 polar_y = 0 polar_z = -0.8
                                         
 *********************************************************************** 
 -------------  beam parameter 2 ------------ 
             
 energy : 125 GeV ; particles : 6.25e+09
  sigma_x  : 210.12 nm ;  sigma_y : 3.13228 nm ; sigma_z : 100 micrometers 
 emitt_x : 0.9 emitt_y : 0.02  (mm.mrad) 
 beta_x : 12000 beta_y : 120 (micrometers) 
 offset_x : -5 nm ; offset_y : -0.2 nm ; offset_z : -0 micrometers 
 waist_x : 0 waist_y : 0 (micrometers) 
 angle_x : 0 angle_y : 0 angle_phi : 0 (radians) 
 type of distribution charge :  dist_x : 0 dist_z : 0
 initial polarization (ONLY FOR bmt_precession = 1 and internally generated beam) : polar_x = 0 polar_y = 0 polar_z = 0
                                         
 *********************************************************************** 
 ------------- SWITCHES :  ------------ 
             
charge_sign = -1
bmt_precession = 1
ST_spin_flip = 0
do_bds_spin_rotation = 0
automatic_grid_sizing = 0
integration_method = 2 force_symmetric = 0
rndm_load = 0rndm_save = 1 rndm_seed = 632116
do_photons.1 = 1 do_photons.2 = 1
write_photons = 1
do_comp = 0 do_prod = 0
electron_ratio = 1
compt_x_min = 1 compt_emax = 100 GeV ; compt_scale = 1
do_lumi = 1num_lumi = 100000 lumi_p = 1e-29
do_cross = 0 do_isr = 0 do_espread = 1
photon_ratio = 1
do_hadrons = 1 store_hadrons = 0 hadron_ratio = 100000
do_jets = 1 store_jets = 0
do_pairs = 1 load_events = 0
track_pairs = 1 pair_step = 1
store_pairs = 1
bhabha_scal = 1e-29 bhabha_ecmload = 500 GeV 
do_muons = 0 track_muons = 0 store_muons = 0
muon_ratio = 1 muon_scale = 1 muon_ecut = 0.105
do_coherent = 1
do_trident = 0
emin = 0
grids = 7
pair_ecut = 0 GeV 
pair_ratio = 1
bhabha_ratio = 1
pair_q2 = 1
beam_pair = 0
jet_ratio = 100000
jet_ptmin = 2
jet_pythia = 0
jet_log = 1
beam_size = 1 beam_size_scale = 1 ext_field = 0
espread.1 = 0.003 which_espread.1 = 1 espread.2 = 0.003 which_espread.2 = 1
f_rep = 120 n_b = 133
                                         
 *********************************************************************** 
 ------------- grid parameters ------------ 
             
n_x = 128 n_y = 640
n_z = 25 n_t = 1
n_m.1 = 100000 n_m.2 = 100000
cut_x = 2521.44 nm ; cut_y = 200.466 nm ; cut_z = 310 micrometers 

 ...................................................... 
 relative amount of interacting particles that were outside the grid during one time step : 
beam 1 : miss = 0  beam 2 : miss = 0
 number of interacting part. that were outside the grid during one time step : 
out.1=0;out.2=0;
                                         
 *********************************************************************** 
 ------------- beam1 ------------ 
             
 ---------- particle beam : 
 total number of coherent particles is 0 with 0 GeV 
 number of tracked macroparticles : 99811
average energy loss of the beam particles (GeV) : de = 4.19531
 ---photon statistics : 
 initial : 
 initial average photon energy (GeV) phot-e1 : 3.10531
 initial number of phot. per tracked macropart.1 : 1.35101
 final : 
 final average photon energy (GeV) phot-e1 : 3.10531
 final number of phot. per tracked macropart.1 : 1.35101

phot-e1=3.10531;n_phot1=1.35101;
de1=4.19531;
                                         
 *********************************************************************** 
 ------------- beam2 ------------ 
             
 ---------- particle beam : 
 total number of coherent particles is 0 with 0 GeV 
 number of tracked macroparticles : 99822
average energy loss of the beam particles (GeV) : de = 4.13884
 ---photon statistics : 
 initial : 
 initial average photon energy (GeV) phot-e2 : 3.07905
 initial number of phot. per tracked macropart.2 : 1.34419
 final : 
 final average photon energy (GeV) phot-e2 : 3.07905
 final number of phot. per tracked macropart.2 : 1.34419

phot-e2=3.07905;n_phot2=1.34419;
de2=4.13884;
                                         
 *********************************************************************** 
 ------------- coherent particles results ------------ 
             
coherent.sum=0;
coherent.sumeng=0;
coherent.upsmax=1.10473e-06;
coherent.probmax=4.02717e-12;
coherent.count=0;
coherent.total_energy=0;
                                         
 *********************************************************************** 
 -------------  results for pairs  ------------ 
             
nb of pairs per bunch crossing : n_pairs = 44596 total energy e_pairs = 55028.7 GeV 

 Breit-Wheeler process : n_BW = 1105.38 e_BW = 619.98 GeV 
 Bethe-Heitler process : n_BH = 25841.8 e_BH = 40196.5 GeV 
 Landau-Lifschitz process : n_LL = 17544 e_LL = 15311.5 GeV 

 total nb (and total energy, in GeV) of the particles due to the 3 processes : 
n.1 = 22233.2 b.1 = 28134.7
n.2 = 22258 b.2 = 27993.3

 nb of particles (and energy in GeV) due to thr 3 previous processes with a transverse momentum of more than 20 MeV and an angle with respect to the beam axis of more than 150 mrad : 
n_pt=13.9812;e_pt=1.55474;
n_pairs=44596;e_pairs=55028.7;
                                         
 *********************************************************************** 
 ------------- jets results ------------ 
             
 nb of minijet evts per bx due to the direct process : jets0 = 0.00133205
nb of minijet evts per bx due to the once resolved process : jets1 = 0.000993541
nb of minijet evts per bx due to the twice resolved process : jets2 = 0.00253505
                                         
 *********************************************************************** 
 ------------- general results ------------ 
             
lumi_fine = 7.68766e+33 m**(-2) (from charge densities) 
lumi_ee = 7.75842e+33 m**(-2) (from beam particles collisions)
lumi_ee_high = 7.75842e+33 1/m2 (per bunch cross. above energy ecm_min)
lumi_pp = 3.87921e+33 m**(-2) 
lumi_eg = 3.52066e+33 m**(-2) (e - gamma) 
lumi_ge = 3.49027e+33 m**(-2) ( gamma - e) 
lumi_gg = 2.00098e+33 m**(-2) (gamma - gamma) 
lumi_gg_high = 2.00098e+33 1/m2 (gamma - gamma, with c.o.m energy more than gg_cut) 
lumi[0][0] = 0
lumi[0][1] = 1.23824e+38
lumi[0][2] = 5.61897e+37
lumi[1][0] = 0
lumi[1][1] = 0
lumi[1][2] = 0
lumi[2][0] = 0
lumi[2][1] = 5.57047e+37
lumi[2][2] = 3.19357e+37
upsmax= 0.27001 (maximal value of the beamstrahlung paramater that occured) 
E_cm = 246.602 E_cm_var = 7.20088
 ............................................... 
 average and RMS angles (x or y) of the particles of each beam after the interaction (microradians) : 
bpm_vx.1=-15.4883;bpm_sig_vx.1=408.602;
bpm_vy.1=-27.3768;bpm_sig_vy.1=74.1818;
bpm_vx.2=15.4373;bpm_sig_vx.2=407.954;
bpm_vy.2=27.3014;bpm_sig_vy.2=72.6568;
 average and RMS angles (x or y) including coherent particles of each beam after the interaction (microradians) : 
bpm_vx_coh.1=-15.4883;
bpm_vy_coh.1=-27.3768;
bpm_vx_coh.2=15.4373;
bpm_vy_coh.2=27.3014;
 ............................................... 
 minimal photon-photon center of mass energies for hadronic events (GeV) : 
hadron_cut.1=2;hadron_cut.2=5;hadron_cut.3=10;
 nb of hadronic events per bunch crossing due to the virtual photons in ee collisions : 
hadrons_ee.1=0.0241541;hadrons_ee.2=0.0132077;hadrons_ee.3=0.00793088;
 nb of hadronic evts per bx due to e-gamma collisions 
hadrons_eg.1=0.0214445;hadrons_eg.2=0.0115783;hadrons_eg.3=0.00639158;
 .. due to gamma-e collisions : 
hadrons_ge.1=0.0211946;hadrons_ge.2=0.0114107;hadrons_ge.3=0.00629628;
 ... due to gamma-gamma collisions : 
hadrons_gg.1=0.0266555;hadrons_gg.2=0.0135417;hadrons_gg.3=0.00614035;
 ... due to all types of collisions : 
hadrons_sum.1=0.0934487;hadrons_sum.2=0.0497385;hadrons_sum.3=0.0267591;
 ............................................... 

lumi_ee=7.75842e+33;
lumi_ee_high=7.75842e+33;
step   lumi total   lumi peak 
1  8.86317e+27  8.86317e+27
2  2.94384e+28  2.94384e+28
3  8.43584e+28  8.43584e+28
4  2.05436e+29  2.05436e+29
5  4.39518e+29  4.39518e+29
6  9.25885e+29  9.25885e+29
7  1.81553e+30  1.81553e+30
8  3.29172e+30  3.29172e+30
9  5.88578e+30  5.88578e+30
10  1.002e+31  1.002e+31
11  1.65561e+31  1.65561e+31
12  2.66894e+31  2.66894e+31
13  4.16789e+31  4.16789e+31
14  6.44674e+31  6.44674e+31
15  9.8436e+31  9.8436e+31
16  1.47146e+32  1.47146e+32
17  2.12853e+32  2.12853e+32
18  2.78971e+32  2.78971e+32
19  3.37316e+32  3.37316e+32
20  4.00146e+32  4.00146e+32
21  4.79185e+32  4.79185e+32
22  5.48544e+32  5.48544e+32
23  5.92101e+32  5.92101e+32
24  5.96325e+32  5.96325e+32
25  5.91548e+32  5.91548e+32
26  5.83808e+32  5.83808e+32
27  5.45719e+32  5.45719e+32
28  4.88141e+32  4.88141e+32
29  4.19294e+32  4.19294e+32
30  3.50247e+32  3.50247e+32
31  2.77891e+32  2.77891e+32
32  2.11672e+32  2.11672e+32
33  1.54992e+32  1.54992e+32
34  1.04708e+32  1.04708e+32
35  6.94627e+31  6.94627e+31
36  4.30196e+31  4.30196e+31
37  2.5289e+31  2.5289e+31
38  1.45804e+31  1.45804e+31
39  7.65541e+30  7.65541e+30
40  4.02451e+30  4.02451e+30
41  1.90827e+30  1.90827e+30
42  8.36462e+29  8.36462e+29
43  3.28729e+29  3.28729e+29
44  1.14905e+29  1.14905e+29
45  3.98843e+28  3.98843e+28
46  1.48775e+28  1.48775e+28
47  4.27332e+27  4.27332e+27
48  1.42444e+27  1.42444e+27
49  4.74813e+26  4.74813e+26
                                         
 *********************************************************************** 
 ------------- other information  ------------ 
             
 initial pairs are saved on file : pairs0.dat
 pairs are saved on file : pairs.dat
 jets are saved on file : minijet.dat
99811 particles are saved on file : beam1.dat
99822 particles are saved on file : beam2.dat
 coherent particles of beam1 are saved on file : coh1.dat
 coherent particles of beam2 are saved on file : coh2.dat
 trident particles of beam1 are saved on file : tri1.dat
 trident particles of beam2 are saved on file : tri2.dat
