****************************************************** 
* guineapig++ Version 1.2.2
* Program written by Daniel Schulte at DESY and CERN 
* object oriented by Guy Le Meur at LAL-Orsay 
* contributions from C. Rimbault at LAL-Orsay 
* B. Dalena, J. Esberg and J. Snuverink at CERN
*
* Compiled with FFTW:  FFTW3 
**************************************************** 

                                         
 *********************************************************************** 
 -------------  beam parameter 1 ------------ 
             
 energy : 125 GeV ; particles : 6.25e+09
  sigma_x  : 210.12 nm ;  sigma_y : 3.13228 nm ; sigma_z : 100 micrometers 
 emitt_x : 0.9 emitt_y : 0.02  (mm.mrad) 
 beta_x : 12000 beta_y : 120 (micrometers) 
 offset_x : 5 nm ; offset_y : 0.2 nm ; offset_z : 0 micrometers 
 waist_x : 0 waist_y : 0 (micrometers) 
 angle_x : 0 angle_y : 0 angle_phi : 0 (radians) 
 type of distribution charge :  dist_x : 0 dist_z : 0
 initial polarization (ONLY FOR bmt_precession = 1 and internally generated beam) : polar_x = 0 polar_y = 0 polar_z = -0.8
                                         
 *********************************************************************** 
 -------------  beam parameter 2 ------------ 
             
 energy : 125 GeV ; particles : 6.25e+09
  sigma_x  : 210.12 nm ;  sigma_y : 3.13228 nm ; sigma_z : 100 micrometers 
 emitt_x : 0.9 emitt_y : 0.02  (mm.mrad) 
 beta_x : 12000 beta_y : 120 (micrometers) 
 offset_x : -5 nm ; offset_y : -0.2 nm ; offset_z : -0 micrometers 
 waist_x : 0 waist_y : 0 (micrometers) 
 angle_x : 0 angle_y : 0 angle_phi : 0 (radians) 
 type of distribution charge :  dist_x : 0 dist_z : 0
 initial polarization (ONLY FOR bmt_precession = 1 and internally generated beam) : polar_x = 0 polar_y = 0 polar_z = 0
                                         
 *********************************************************************** 
 ------------- SWITCHES :  ------------ 
             
charge_sign = -1
bmt_precession = 1
ST_spin_flip = 0
do_bds_spin_rotation = 0
automatic_grid_sizing = 0
integration_method = 2 force_symmetric = 0
rndm_load = 0rndm_save = 1 rndm_seed = 832070
do_photons.1 = 1 do_photons.2 = 1
write_photons = 1
do_comp = 0 do_prod = 0
electron_ratio = 1
compt_x_min = 1 compt_emax = 100 GeV ; compt_scale = 1
do_lumi = 1num_lumi = 100000 lumi_p = 1e-29
do_cross = 0 do_isr = 0 do_espread = 1
photon_ratio = 1
do_hadrons = 1 store_hadrons = 0 hadron_ratio = 100000
do_jets = 1 store_jets = 0
do_pairs = 1 load_events = 0
track_pairs = 1 pair_step = 1
store_pairs = 1
bhabha_scal = 1e-29 bhabha_ecmload = 500 GeV 
do_muons = 0 track_muons = 0 store_muons = 0
muon_ratio = 1 muon_scale = 1 muon_ecut = 0.105
do_coherent = 1
do_trident = 0
emin = 0
grids = 7
pair_ecut = 0 GeV 
pair_ratio = 1
bhabha_ratio = 1
pair_q2 = 1
beam_pair = 0
jet_ratio = 100000
jet_ptmin = 2
jet_pythia = 0
jet_log = 1
beam_size = 1 beam_size_scale = 1 ext_field = 0
espread.1 = 0.003 which_espread.1 = 1 espread.2 = 0.003 which_espread.2 = 1
f_rep = 120 n_b = 133
                                         
 *********************************************************************** 
 ------------- grid parameters ------------ 
             
n_x = 128 n_y = 640
n_z = 25 n_t = 1
n_m.1 = 100000 n_m.2 = 100000
cut_x = 2521.44 nm ; cut_y = 200.466 nm ; cut_z = 310 micrometers 

 ...................................................... 
 relative amount of interacting particles that were outside the grid during one time step : 
beam 1 : miss = 0  beam 2 : miss = 0
 number of interacting part. that were outside the grid during one time step : 
out.1=0;out.2=0;
                                         
 *********************************************************************** 
 ------------- beam1 ------------ 
             
 ---------- particle beam : 
 total number of coherent particles is 0 with 0 GeV 
 number of tracked macroparticles : 99805
average energy loss of the beam particles (GeV) : de = 4.10143
 ---photon statistics : 
 initial : 
 initial average photon energy (GeV) phot-e1 : 3.06849
 initial number of phot. per tracked macropart.1 : 1.33663
 final : 
 final average photon energy (GeV) phot-e1 : 3.06849
 final number of phot. per tracked macropart.1 : 1.33663

phot-e1=3.06849;n_phot1=1.33663;
de1=4.10143;
                                         
 *********************************************************************** 
 ------------- beam2 ------------ 
             
 ---------- particle beam : 
 total number of coherent particles is 0 with 0 GeV 
 number of tracked macroparticles : 99797
average energy loss of the beam particles (GeV) : de = 4.16978
 ---photon statistics : 
 initial : 
 initial average photon energy (GeV) phot-e2 : 3.09173
 initial number of phot. per tracked macropart.2 : 1.34869
 final : 
 final average photon energy (GeV) phot-e2 : 3.09173
 final number of phot. per tracked macropart.2 : 1.34869

phot-e2=3.09173;n_phot2=1.34869;
de2=4.16978;
                                         
 *********************************************************************** 
 ------------- coherent particles results ------------ 
             
coherent.sum=0;
coherent.sumeng=0;
coherent.upsmax=1.11457e-06;
coherent.probmax=1.9735e-12;
coherent.count=0;
coherent.total_energy=0;
                                         
 *********************************************************************** 
 -------------  results for pairs  ------------ 
             
nb of pairs per bunch crossing : n_pairs = 42686 total energy e_pairs = 53015.7 GeV 

 Breit-Wheeler process : n_BW = 1082.15 e_BW = 599.953 GeV 
 Bethe-Heitler process : n_BH = 25211.5 e_BH = 39001.8 GeV 
 Landau-Lifschitz process : n_LL = 17235.4 e_LL = 14836.9 GeV 

 total nb (and total energy, in GeV) of the particles due to the 3 processes : 
n.1 = 21689.2 b.1 = 26914.3
n.2 = 21839.8 b.2 = 27524.3

 nb of particles (and energy in GeV) due to thr 3 previous processes with a transverse momentum of more than 20 MeV and an angle with respect to the beam axis of more than 150 mrad : 
n_pt=13.6615;e_pt=1.51816;
n_pairs=42686;e_pairs=53015.7;
                                         
 *********************************************************************** 
 ------------- jets results ------------ 
             
 nb of minijet evts per bx due to the direct process : jets0 = 0.0012908
nb of minijet evts per bx due to the once resolved process : jets1 = 0.000962207
nb of minijet evts per bx due to the twice resolved process : jets2 = 0.00245695
                                         
 *********************************************************************** 
 ------------- general results ------------ 
             
lumi_fine = 7.51721e+33 m**(-2) (from charge densities) 
lumi_ee = 7.58938e+33 m**(-2) (from beam particles collisions)
lumi_ee_high = 7.58938e+33 1/m2 (per bunch cross. above energy ecm_min)
lumi_pp = 3.79469e+33 m**(-2) 
lumi_eg = 3.43388e+33 m**(-2) (e - gamma) 
lumi_ge = 3.38505e+33 m**(-2) ( gamma - e) 
lumi_gg = 1.93883e+33 m**(-2) (gamma - gamma) 
lumi_gg_high = 1.93883e+33 1/m2 (gamma - gamma, with c.o.m energy more than gg_cut) 
lumi[0][0] = 0
lumi[0][1] = 1.21126e+38
lumi[0][2] = 5.48047e+37
lumi[1][0] = 0
lumi[1][1] = 0
lumi[1][2] = 0
lumi[2][0] = 0
lumi[2][1] = 5.40254e+37
lumi[2][2] = 3.09437e+37
upsmax= 0.271511 (maximal value of the beamstrahlung paramater that occured) 
E_cm = 246.672 E_cm_var = 7.11923
 ............................................... 
 average and RMS angles (x or y) of the particles of each beam after the interaction (microradians) : 
bpm_vx.1=-18.1974;bpm_sig_vx.1=405.229;
bpm_vy.1=-27.4552;bpm_sig_vy.1=76.0031;
bpm_vx.2=18.1577;bpm_sig_vx.2=407.496;
bpm_vy.2=27.7695;bpm_sig_vy.2=77.1306;
 average and RMS angles (x or y) including coherent particles of each beam after the interaction (microradians) : 
bpm_vx_coh.1=-18.1974;
bpm_vy_coh.1=-27.4552;
bpm_vx_coh.2=18.1577;
bpm_vy_coh.2=27.7695;
 ............................................... 
 minimal photon-photon center of mass energies for hadronic events (GeV) : 
hadron_cut.1=2;hadron_cut.2=5;hadron_cut.3=10;
 nb of hadronic events per bunch crossing due to the virtual photons in ee collisions : 
hadrons_ee.1=0.0234201;hadrons_ee.2=0.0127809;hadrons_ee.3=0.00766204;
 nb of hadronic evts per bx due to e-gamma collisions 
hadrons_eg.1=0.0208847;hadrons_eg.2=0.0112489;hadrons_eg.3=0.00620052;
 .. due to gamma-e collisions : 
hadrons_ge.1=0.0203699;hadrons_ge.2=0.0109355;hadrons_ge.3=0.00601959;
 ... due to gamma-gamma collisions : 
hadrons_gg.1=0.025612;hadrons_gg.2=0.0129641;hadrons_gg.3=0.00585938;
 ... due to all types of collisions : 
hadrons_sum.1=0.0902867;hadrons_sum.2=0.0479293;hadrons_sum.3=0.0257415;
 ............................................... 

lumi_ee=7.58938e+33;
lumi_ee_high=7.58938e+33;
step   lumi total   lumi peak 
1  5.22294e+27  5.22294e+27
2  2.50068e+28  2.50068e+28
3  7.61283e+28  7.61283e+28
4  1.97047e+29  1.97047e+29
5  4.43475e+29  4.43475e+29
6  9.24302e+29  9.24302e+29
7  1.8217e+30  1.8217e+30
8  3.34427e+30  3.34427e+30
9  5.88705e+30  5.88705e+30
10  1.01268e+31  1.01268e+31
11  1.66533e+31  1.66533e+31
12  2.6448e+31  2.6448e+31
13  4.15593e+31  4.15593e+31
14  6.37617e+31  6.37617e+31
15  9.68398e+31  9.68398e+31
16  1.45401e+32  1.45401e+32
17  2.07745e+32  2.07745e+32
18  2.70992e+32  2.70992e+32
19  3.29846e+32  3.29846e+32
20  3.93301e+32  3.93301e+32
21  4.70782e+32  4.70782e+32
22  5.42351e+32  5.42351e+32
23  5.78479e+32  5.78479e+32
24  5.86042e+32  5.86042e+32
25  5.84837e+32  5.84837e+32
26  5.78449e+32  5.78449e+32
27  5.39922e+32  5.39922e+32
28  4.80475e+32  4.80475e+32
29  4.10118e+32  4.10118e+32
30  3.41065e+32  3.41065e+32
31  2.67676e+32  2.67676e+32
32  2.0242e+32  2.0242e+32
33  1.4513e+32  1.4513e+32
34  9.59008e+31  9.59008e+31
35  6.26072e+31  6.26072e+31
36  3.92536e+31  3.92536e+31
37  2.25204e+31  2.25204e+31
38  1.2565e+31  1.2565e+31
39  6.91881e+30  6.91881e+30
40  3.55018e+30  3.55018e+30
41  1.70426e+30  1.70426e+30
42  7.76636e+29  7.76636e+29
43  2.77607e+29  2.77607e+29
44  1.0256e+29  1.0256e+29
45  3.52944e+28  3.52944e+28
46  1.40861e+28  1.40861e+28
47  4.74813e+27  4.74813e+27
48  1.58271e+27  1.58271e+27
49  1.58271e+26  1.58271e+26
                                         
 *********************************************************************** 
 ------------- other information  ------------ 
             
 initial pairs are saved on file : pairs0.dat
 pairs are saved on file : pairs.dat
 jets are saved on file : minijet.dat
99805 particles are saved on file : beam1.dat
99797 particles are saved on file : beam2.dat
 coherent particles of beam1 are saved on file : coh1.dat
 coherent particles of beam2 are saved on file : coh2.dat
 trident particles of beam1 are saved on file : tri1.dat
 trident particles of beam2 are saved on file : tri2.dat
