****************************************************** 
* guineapig++ Version 1.2.2
* Program written by Daniel Schulte at DESY and CERN 
* object oriented by Guy Le Meur at LAL-Orsay 
* contributions from C. Rimbault at LAL-Orsay 
* B. Dalena, J. Esberg and J. Snuverink at CERN
*
* Compiled with FFTW:  FFTW3 
**************************************************** 

                                         
 *********************************************************************** 
 -------------  beam parameter 1 ------------ 
             
 energy : 125 GeV ; particles : 6.25e+09
  sigma_x  : 210.12 nm ;  sigma_y : 3.13228 nm ; sigma_z : 100 micrometers 
 emitt_x : 0.9 emitt_y : 0.02  (mm.mrad) 
 beta_x : 12000 beta_y : 120 (micrometers) 
 offset_x : 5 nm ; offset_y : 0.2 nm ; offset_z : 0 micrometers 
 waist_x : 0 waist_y : 0 (micrometers) 
 angle_x : 0 angle_y : 0 angle_phi : 0 (radians) 
 type of distribution charge :  dist_x : 0 dist_z : 0
 initial polarization (ONLY FOR bmt_precession = 1 and internally generated beam) : polar_x = 0 polar_y = 0 polar_z = -0.8
                                         
 *********************************************************************** 
 -------------  beam parameter 2 ------------ 
             
 energy : 125 GeV ; particles : 6.25e+09
  sigma_x  : 210.12 nm ;  sigma_y : 3.13228 nm ; sigma_z : 100 micrometers 
 emitt_x : 0.9 emitt_y : 0.02  (mm.mrad) 
 beta_x : 12000 beta_y : 120 (micrometers) 
 offset_x : -5 nm ; offset_y : -0.2 nm ; offset_z : -0 micrometers 
 waist_x : 0 waist_y : 0 (micrometers) 
 angle_x : 0 angle_y : 0 angle_phi : 0 (radians) 
 type of distribution charge :  dist_x : 0 dist_z : 0
 initial polarization (ONLY FOR bmt_precession = 1 and internally generated beam) : polar_x = 0 polar_y = 0 polar_z = 0
                                         
 *********************************************************************** 
 ------------- SWITCHES :  ------------ 
             
charge_sign = -1
bmt_precession = 1
ST_spin_flip = 0
do_bds_spin_rotation = 0
automatic_grid_sizing = 0
integration_method = 2 force_symmetric = 0
rndm_load = 0rndm_save = 1 rndm_seed = 259074
do_photons.1 = 1 do_photons.2 = 1
write_photons = 1
do_comp = 0 do_prod = 0
electron_ratio = 1
compt_x_min = 1 compt_emax = 100 GeV ; compt_scale = 1
do_lumi = 1num_lumi = 100000 lumi_p = 1e-29
do_cross = 0 do_isr = 0 do_espread = 1
photon_ratio = 1
do_hadrons = 1 store_hadrons = 0 hadron_ratio = 100000
do_jets = 1 store_jets = 0
do_pairs = 1 load_events = 0
track_pairs = 1 pair_step = 1
store_pairs = 1
bhabha_scal = 1e-29 bhabha_ecmload = 500 GeV 
do_muons = 0 track_muons = 0 store_muons = 0
muon_ratio = 1 muon_scale = 1 muon_ecut = 0.105
do_coherent = 1
do_trident = 0
emin = 0
grids = 7
pair_ecut = 0 GeV 
pair_ratio = 1
bhabha_ratio = 1
pair_q2 = 1
beam_pair = 0
jet_ratio = 100000
jet_ptmin = 2
jet_pythia = 0
jet_log = 1
beam_size = 1 beam_size_scale = 1 ext_field = 0
espread.1 = 0.003 which_espread.1 = 1 espread.2 = 0.003 which_espread.2 = 1
f_rep = 120 n_b = 133
                                         
 *********************************************************************** 
 ------------- grid parameters ------------ 
             
n_x = 128 n_y = 640
n_z = 25 n_t = 1
n_m.1 = 100000 n_m.2 = 100000
cut_x = 2521.44 nm ; cut_y = 200.466 nm ; cut_z = 310 micrometers 

 ...................................................... 
 relative amount of interacting particles that were outside the grid during one time step : 
beam 1 : miss = 0  beam 2 : miss = 0
 number of interacting part. that were outside the grid during one time step : 
out.1=0;out.2=0;
                                         
 *********************************************************************** 
 ------------- beam1 ------------ 
             
 ---------- particle beam : 
 total number of coherent particles is 0 with 0 GeV 
 number of tracked macroparticles : 99819
average energy loss of the beam particles (GeV) : de = 4.1945
 ---photon statistics : 
 initial : 
 initial average photon energy (GeV) phot-e1 : 3.10001
 initial number of phot. per tracked macropart.1 : 1.35306
 final : 
 final average photon energy (GeV) phot-e1 : 3.10001
 final number of phot. per tracked macropart.1 : 1.35306

phot-e1=3.10001;n_phot1=1.35306;
de1=4.1945;
                                         
 *********************************************************************** 
 ------------- beam2 ------------ 
             
 ---------- particle beam : 
 total number of coherent particles is 0 with 0 GeV 
 number of tracked macroparticles : 99815
average energy loss of the beam particles (GeV) : de = 4.1319
 ---photon statistics : 
 initial : 
 initial average photon energy (GeV) phot-e2 : 3.09304
 initial number of phot. per tracked macropart.2 : 1.33587
 final : 
 final average photon energy (GeV) phot-e2 : 3.09304
 final number of phot. per tracked macropart.2 : 1.33587

phot-e2=3.09304;n_phot2=1.33587;
de2=4.1319;
                                         
 *********************************************************************** 
 ------------- coherent particles results ------------ 
             
coherent.sum=0;
coherent.sumeng=0;
coherent.upsmax=1.11228e-06;
coherent.probmax=3.42469e-13;
coherent.count=0;
coherent.total_energy=0;
                                         
 *********************************************************************** 
 -------------  results for pairs  ------------ 
             
nb of pairs per bunch crossing : n_pairs = 44344 total energy e_pairs = 55862 GeV 

 Breit-Wheeler process : n_BW = 1125.55 e_BW = 643.36 GeV 
 Bethe-Heitler process : n_BH = 25677.1 e_BH = 39830.2 GeV 
 Landau-Lifschitz process : n_LL = 17392.6 e_LL = 14949.5 GeV 

 total nb (and total energy, in GeV) of the particles due to the 3 processes : 
n.1 = 22171.8 b.1 = 27862.6
n.2 = 22023.5 b.2 = 27560.5

 nb of particles (and energy in GeV) due to thr 3 previous processes with a transverse momentum of more than 20 MeV and an angle with respect to the beam axis of more than 150 mrad : 
n_pt=13.9468;e_pt=1.551;
n_pairs=44344;e_pairs=55862;
                                         
 *********************************************************************** 
 ------------- jets results ------------ 
             
 nb of minijet evts per bx due to the direct process : jets0 = 0.00131775
nb of minijet evts per bx due to the once resolved process : jets1 = 0.000982746
nb of minijet evts per bx due to the twice resolved process : jets2 = 0.00251403
                                         
 *********************************************************************** 
 ------------- general results ------------ 
             
lumi_fine = 7.633e+33 m**(-2) (from charge densities) 
lumi_ee = 7.7093e+33 m**(-2) (from beam particles collisions)
lumi_ee_high = 7.7093e+33 1/m2 (per bunch cross. above energy ecm_min)
lumi_pp = 3.85465e+33 m**(-2) 
lumi_eg = 3.46001e+33 m**(-2) (e - gamma) 
lumi_ge = 3.52031e+33 m**(-2) ( gamma - e) 
lumi_gg = 1.98725e+33 m**(-2) (gamma - gamma) 
lumi_gg_high = 1.98725e+33 1/m2 (gamma - gamma, with c.o.m energy more than gg_cut) 
lumi[0][0] = 0
lumi[0][1] = 1.2304e+38
lumi[0][2] = 5.52217e+37
lumi[1][0] = 0
lumi[1][1] = 0
lumi[1][2] = 0
lumi[2][0] = 0
lumi[2][1] = 5.61841e+37
lumi[2][2] = 3.17166e+37
upsmax= 0.275862 (maximal value of the beamstrahlung paramater that occured) 
E_cm = 246.623 E_cm_var = 7.25042
 ............................................... 
 average and RMS angles (x or y) of the particles of each beam after the interaction (microradians) : 
bpm_vx.1=-17.1231;bpm_sig_vx.1=409.07;
bpm_vy.1=-25.8872;bpm_sig_vy.1=73.1941;
bpm_vx.2=17.1159;bpm_sig_vx.2=406.456;
bpm_vy.2=25.9096;bpm_sig_vy.2=73.4801;
 average and RMS angles (x or y) including coherent particles of each beam after the interaction (microradians) : 
bpm_vx_coh.1=-17.1231;
bpm_vy_coh.1=-25.8872;
bpm_vx_coh.2=17.1159;
bpm_vy_coh.2=25.9096;
 ............................................... 
 minimal photon-photon center of mass energies for hadronic events (GeV) : 
hadron_cut.1=2;hadron_cut.2=5;hadron_cut.3=10;
 nb of hadronic events per bunch crossing due to the virtual photons in ee collisions : 
hadrons_ee.1=0.0239245;hadrons_ee.2=0.0130639;hadrons_ee.3=0.00783919;
 nb of hadronic evts per bx due to e-gamma collisions 
hadrons_eg.1=0.0209349;hadrons_eg.2=0.0112659;hadrons_eg.3=0.00620221;
 .. due to gamma-e collisions : 
hadrons_ge.1=0.0212794;hadrons_ge.2=0.011456;hadrons_ge.3=0.00632395;
 ... due to gamma-gamma collisions : 
hadrons_gg.1=0.0263076;hadrons_gg.2=0.0133144;hadrons_gg.3=0.0060348;
 ... due to all types of collisions : 
hadrons_sum.1=0.0924463;hadrons_sum.2=0.0491001;hadrons_sum.3=0.0264001;
 ............................................... 

lumi_ee=7.7093e+33;
lumi_ee_high=7.7093e+33;
step   lumi total   lumi peak 
1  4.74813e+27  4.74813e+27
2  2.91219e+28  2.91219e+28
3  7.85024e+28  7.85024e+28
4  2.00529e+29  2.00529e+29
5  4.59935e+29  4.59935e+29
6  9.28734e+29  9.28734e+29
7  1.81648e+30  1.81648e+30
8  3.34664e+30  3.34664e+30
9  5.82706e+30  5.82706e+30
10  9.9888e+30  9.9888e+30
11  1.64703e+31  1.64703e+31
12  2.63122e+31  2.63122e+31
13  4.13399e+31  4.13399e+31
14  6.35175e+31  6.35175e+31
15  9.64391e+31  9.64391e+31
16  1.45238e+32  1.45238e+32
17  2.07722e+32  2.07722e+32
18  2.71869e+32  2.71869e+32
19  3.32304e+32  3.32304e+32
20  4.00172e+32  4.00172e+32
21  4.79173e+32  4.79173e+32
22  5.49972e+32  5.49972e+32
23  5.88678e+32  5.88678e+32
24  5.97631e+32  5.97631e+32
25  5.97474e+32  5.97474e+32
26  5.90627e+32  5.90627e+32
27  5.52053e+32  5.52053e+32
28  4.9136e+32  4.9136e+32
29  4.17579e+32  4.17579e+32
30  3.45193e+32  3.45193e+32
31  2.69447e+32  2.69447e+32
32  2.05414e+32  2.05414e+32
33  1.48126e+32  1.48126e+32
34  9.82087e+31  9.82087e+31
35  6.45326e+31  6.45326e+31
36  3.97145e+31  3.97145e+31
37  2.28749e+31  2.28749e+31
38  1.3152e+31  1.3152e+31
39  7.09893e+30  7.09893e+30
40  3.69452e+30  3.69452e+30
41  1.87329e+30  1.87329e+30
42  8.52447e+29  8.52447e+29
43  3.3316e+29  3.3316e+29
44  1.14272e+29  1.14272e+29
45  3.84598e+28  3.84598e+28
46  1.40861e+28  1.40861e+28
47  6.0143e+27  6.0143e+27
48  1.26617e+27  1.26617e+27
49  7.91355e+26  7.91355e+26
                                         
 *********************************************************************** 
 ------------- other information  ------------ 
             
 initial pairs are saved on file : pairs0.dat
 pairs are saved on file : pairs.dat
 jets are saved on file : minijet.dat
99819 particles are saved on file : beam1.dat
99815 particles are saved on file : beam2.dat
 coherent particles of beam1 are saved on file : coh1.dat
 coherent particles of beam2 are saved on file : coh2.dat
 trident particles of beam1 are saved on file : tri1.dat
 trident particles of beam2 are saved on file : tri2.dat
