****************************************************** 
* guineapig++ Version 1.2.2
* Program written by Daniel Schulte at DESY and CERN 
* object oriented by Guy Le Meur at LAL-Orsay 
* contributions from C. Rimbault at LAL-Orsay 
* B. Dalena, J. Esberg and J. Snuverink at CERN
*
* Compiled with FFTW:  FFTW3 
**************************************************** 

                                         
 *********************************************************************** 
 -------------  beam parameter 1 ------------ 
             
 energy : 125 GeV ; particles : 6.25e+09
  sigma_x  : 210.12 nm ;  sigma_y : 3.13228 nm ; sigma_z : 100 micrometers 
 emitt_x : 0.9 emitt_y : 0.02  (mm.mrad) 
 beta_x : 12000 beta_y : 120 (micrometers) 
 offset_x : 5 nm ; offset_y : 0.2 nm ; offset_z : 0 micrometers 
 waist_x : 0 waist_y : 0 (micrometers) 
 angle_x : 0 angle_y : 0 angle_phi : 0 (radians) 
 type of distribution charge :  dist_x : 0 dist_z : 0
 initial polarization (ONLY FOR bmt_precession = 1 and internally generated beam) : polar_x = 0 polar_y = 0 polar_z = -0.8
                                         
 *********************************************************************** 
 -------------  beam parameter 2 ------------ 
             
 energy : 125 GeV ; particles : 6.25e+09
  sigma_x  : 210.12 nm ;  sigma_y : 3.13228 nm ; sigma_z : 100 micrometers 
 emitt_x : 0.9 emitt_y : 0.02  (mm.mrad) 
 beta_x : 12000 beta_y : 120 (micrometers) 
 offset_x : -5 nm ; offset_y : -0.2 nm ; offset_z : -0 micrometers 
 waist_x : 0 waist_y : 0 (micrometers) 
 angle_x : 0 angle_y : 0 angle_phi : 0 (radians) 
 type of distribution charge :  dist_x : 0 dist_z : 0
 initial polarization (ONLY FOR bmt_precession = 1 and internally generated beam) : polar_x = 0 polar_y = 0 polar_z = 0
                                         
 *********************************************************************** 
 ------------- SWITCHES :  ------------ 
             
charge_sign = -1
bmt_precession = 1
ST_spin_flip = 0
do_bds_spin_rotation = 0
automatic_grid_sizing = 0
integration_method = 2 force_symmetric = 0
rndm_load = 0rndm_save = 1 rndm_seed = 484671
do_photons.1 = 1 do_photons.2 = 1
write_photons = 1
do_comp = 0 do_prod = 0
electron_ratio = 1
compt_x_min = 1 compt_emax = 100 GeV ; compt_scale = 1
do_lumi = 1num_lumi = 100000 lumi_p = 1e-29
do_cross = 0 do_isr = 0 do_espread = 1
photon_ratio = 1
do_hadrons = 1 store_hadrons = 0 hadron_ratio = 100000
do_jets = 1 store_jets = 0
do_pairs = 1 load_events = 0
track_pairs = 1 pair_step = 1
store_pairs = 1
bhabha_scal = 1e-29 bhabha_ecmload = 500 GeV 
do_muons = 0 track_muons = 0 store_muons = 0
muon_ratio = 1 muon_scale = 1 muon_ecut = 0.105
do_coherent = 1
do_trident = 0
emin = 0
grids = 7
pair_ecut = 0 GeV 
pair_ratio = 1
bhabha_ratio = 1
pair_q2 = 1
beam_pair = 0
jet_ratio = 100000
jet_ptmin = 2
jet_pythia = 0
jet_log = 1
beam_size = 1 beam_size_scale = 1 ext_field = 0
espread.1 = 0.003 which_espread.1 = 1 espread.2 = 0.003 which_espread.2 = 1
f_rep = 120 n_b = 133
                                         
 *********************************************************************** 
 ------------- grid parameters ------------ 
             
n_x = 128 n_y = 640
n_z = 25 n_t = 1
n_m.1 = 100000 n_m.2 = 100000
cut_x = 2521.44 nm ; cut_y = 200.466 nm ; cut_z = 310 micrometers 

 ...................................................... 
 relative amount of interacting particles that were outside the grid during one time step : 
beam 1 : miss = 0  beam 2 : miss = 0
 number of interacting part. that were outside the grid during one time step : 
out.1=0;out.2=0;
                                         
 *********************************************************************** 
 ------------- beam1 ------------ 
             
 ---------- particle beam : 
 total number of coherent particles is 0 with 0 GeV 
 number of tracked macroparticles : 99800
average energy loss of the beam particles (GeV) : de = 4.16323
 ---photon statistics : 
 initial : 
 initial average photon energy (GeV) phot-e1 : 3.09073
 initial number of phot. per tracked macropart.1 : 1.347
 final : 
 final average photon energy (GeV) phot-e1 : 3.09073
 final number of phot. per tracked macropart.1 : 1.347

phot-e1=3.09073;n_phot1=1.347;
de1=4.16323;
                                         
 *********************************************************************** 
 ------------- beam2 ------------ 
             
 ---------- particle beam : 
 total number of coherent particles is 0 with 0 GeV 
 number of tracked macroparticles : 99792
average energy loss of the beam particles (GeV) : de = 4.09083
 ---photon statistics : 
 initial : 
 initial average photon energy (GeV) phot-e2 : 3.04742
 initial number of phot. per tracked macropart.2 : 1.34239
 final : 
 final average photon energy (GeV) phot-e2 : 3.04742
 final number of phot. per tracked macropart.2 : 1.34239

phot-e2=3.04742;n_phot2=1.34239;
de2=4.09083;
                                         
 *********************************************************************** 
 ------------- coherent particles results ------------ 
             
coherent.sum=0;
coherent.sumeng=0;
coherent.upsmax=1.08216e-06;
coherent.probmax=3.2762e-12;
coherent.count=0;
coherent.total_energy=0;
                                         
 *********************************************************************** 
 -------------  results for pairs  ------------ 
             
nb of pairs per bunch crossing : n_pairs = 44714 total energy e_pairs = 55858.1 GeV 

 Breit-Wheeler process : n_BW = 1116.22 e_BW = 650.093 GeV 
 Bethe-Heitler process : n_BH = 25732.6 e_BH = 39804.1 GeV 
 Landau-Lifschitz process : n_LL = 17505 e_LL = 15124.7 GeV 

 total nb (and total energy, in GeV) of the particles due to the 3 processes : 
n.1 = 22222.2 b.1 = 27899.6
n.2 = 22131.6 b.2 = 27679.2

 nb of particles (and energy in GeV) due to thr 3 previous processes with a transverse momentum of more than 20 MeV and an angle with respect to the beam axis of more than 150 mrad : 
n_pt=13.9007;e_pt=1.54681;
n_pairs=44714;e_pairs=55858.1;
                                         
 *********************************************************************** 
 ------------- jets results ------------ 
             
 nb of minijet evts per bx due to the direct process : jets0 = 0.00131702
nb of minijet evts per bx due to the once resolved process : jets1 = 0.000982376
nb of minijet evts per bx due to the twice resolved process : jets2 = 0.00250611
                                         
 *********************************************************************** 
 ------------- general results ------------ 
             
lumi_fine = 7.67051e+33 m**(-2) (from charge densities) 
lumi_ee = 7.7441e+33 m**(-2) (from beam particles collisions)
lumi_ee_high = 7.7441e+33 1/m2 (per bunch cross. above energy ecm_min)
lumi_pp = 3.87205e+33 m**(-2) 
lumi_eg = 3.48737e+33 m**(-2) (e - gamma) 
lumi_ge = 3.48125e+33 m**(-2) ( gamma - e) 
lumi_gg = 1.97299e+33 m**(-2) (gamma - gamma) 
lumi_gg_high = 1.97299e+33 1/m2 (gamma - gamma, with c.o.m energy more than gg_cut) 
lumi[0][0] = 0
lumi[0][1] = 1.23596e+38
lumi[0][2] = 5.56585e+37
lumi[1][0] = 0
lumi[1][1] = 0
lumi[1][2] = 0
lumi[2][0] = 0
lumi[2][1] = 5.55608e+37
lumi[2][2] = 3.1489e+37
upsmax= 0.261494 (maximal value of the beamstrahlung paramater that occured) 
E_cm = 246.636 E_cm_var = 7.20526
 ............................................... 
 average and RMS angles (x or y) of the particles of each beam after the interaction (microradians) : 
bpm_vx.1=-17.0583;bpm_sig_vx.1=407.7;
bpm_vy.1=-25.8241;bpm_sig_vy.1=72.1511;
bpm_vx.2=17.1865;bpm_sig_vx.2=406.922;
bpm_vy.2=25.7549;bpm_sig_vy.2=71.1561;
 average and RMS angles (x or y) including coherent particles of each beam after the interaction (microradians) : 
bpm_vx_coh.1=-17.0583;
bpm_vy_coh.1=-25.8241;
bpm_vx_coh.2=17.1865;
bpm_vy_coh.2=25.7549;
 ............................................... 
 minimal photon-photon center of mass energies for hadronic events (GeV) : 
hadron_cut.1=2;hadron_cut.2=5;hadron_cut.3=10;
 nb of hadronic events per bunch crossing due to the virtual photons in ee collisions : 
hadrons_ee.1=0.0240115;hadrons_ee.2=0.0131102;hadrons_ee.3=0.00786395;
 nb of hadronic evts per bx due to e-gamma collisions 
hadrons_eg.1=0.0210438;hadrons_eg.2=0.0113097;hadrons_eg.3=0.0062326;
 .. due to gamma-e collisions : 
hadrons_ge.1=0.0211626;hadrons_ge.2=0.0113954;hadrons_ge.3=0.00628782;
 ... due to gamma-gamma collisions : 
hadrons_gg.1=0.0260801;hadrons_gg.2=0.0132452;hadrons_gg.3=0.00599255;
 ... due to all types of collisions : 
hadrons_sum.1=0.0922979;hadrons_sum.2=0.0490606;hadrons_sum.3=0.0263769;
 ............................................... 

lumi_ee=7.7441e+33;
lumi_ee_high=7.7441e+33;
step   lumi total   lumi peak 
1  5.06467e+27  5.06467e+27
2  2.88053e+28  2.88053e+28
3  7.67614e+28  7.67614e+28
4  1.98788e+29  1.98788e+29
5  4.50914e+29  4.50914e+29
6  9.18288e+29  9.18288e+29
7  1.80255e+30  1.80255e+30
8  3.31768e+30  3.31768e+30
9  5.85001e+30  5.85001e+30
10  9.96395e+30  9.96395e+30
11  1.6341e+31  1.6341e+31
12  2.63486e+31  2.63486e+31
13  4.12362e+31  4.12362e+31
14  6.33422e+31  6.33422e+31
15  9.63792e+31  9.63792e+31
16  1.45617e+32  1.45617e+32
17  2.08853e+32  2.08853e+32
18  2.75017e+32  2.75017e+32
19  3.34071e+32  3.34071e+32
20  4.00356e+32  4.00356e+32
21  4.79895e+32  4.79895e+32
22  5.49701e+32  5.49701e+32
23  5.90002e+32  5.90002e+32
24  5.96328e+32  5.96328e+32
25  5.95908e+32  5.95908e+32
26  5.86827e+32  5.86827e+32
27  5.4843e+32  5.4843e+32
28  4.89799e+32  4.89799e+32
29  4.17404e+32  4.17404e+32
30  3.48927e+32  3.48927e+32
31  2.75157e+32  2.75157e+32
32  2.0987e+32  2.0987e+32
33  1.54573e+32  1.54573e+32
34  1.04449e+32  1.04449e+32
35  6.93043e+31  6.93043e+31
36  4.27306e+31  4.27306e+31
37  2.52127e+31  2.52127e+31
38  1.43275e+31  1.43275e+31
39  7.7089e+30  7.7089e+30
40  3.90344e+30  3.90344e+30
41  2.02951e+30  2.02951e+30
42  8.98662e+29  8.98662e+29
43  3.47721e+29  3.47721e+29
44  1.20128e+29  1.20128e+29
45  4.82726e+28  4.82726e+28
46  1.66184e+28  1.66184e+28
47  5.85602e+27  5.85602e+27
48  1.74098e+27  1.74098e+27
49  3.16542e+26  3.16542e+26
                                         
 *********************************************************************** 
 ------------- other information  ------------ 
             
 initial pairs are saved on file : pairs0.dat
 pairs are saved on file : pairs.dat
 jets are saved on file : minijet.dat
99800 particles are saved on file : beam1.dat
99792 particles are saved on file : beam2.dat
 coherent particles of beam1 are saved on file : coh1.dat
 coherent particles of beam2 are saved on file : coh2.dat
 trident particles of beam1 are saved on file : tri1.dat
 trident particles of beam2 are saved on file : tri2.dat
