****************************************************** 
* guineapig++ Version 1.2.2
* Program written by Daniel Schulte at DESY and CERN 
* object oriented by Guy Le Meur at LAL-Orsay 
* contributions from C. Rimbault at LAL-Orsay 
* B. Dalena, J. Esberg and J. Snuverink at CERN
*
* Compiled with FFTW:  FFTW3 
**************************************************** 

                                         
 *********************************************************************** 
 -------------  beam parameter 1 ------------ 
             
 energy : 125 GeV ; particles : 6.25e+09
  sigma_x  : 210.12 nm ;  sigma_y : 3.13228 nm ; sigma_z : 100 micrometers 
 emitt_x : 0.9 emitt_y : 0.02  (mm.mrad) 
 beta_x : 12000 beta_y : 120 (micrometers) 
 offset_x : 5 nm ; offset_y : 0.2 nm ; offset_z : 0 micrometers 
 waist_x : 0 waist_y : 0 (micrometers) 
 angle_x : 0 angle_y : 0 angle_phi : 0 (radians) 
 type of distribution charge :  dist_x : 0 dist_z : 0
 initial polarization (ONLY FOR bmt_precession = 1 and internally generated beam) : polar_x = 0 polar_y = 0 polar_z = -0.8
                                         
 *********************************************************************** 
 -------------  beam parameter 2 ------------ 
             
 energy : 125 GeV ; particles : 6.25e+09
  sigma_x  : 210.12 nm ;  sigma_y : 3.13228 nm ; sigma_z : 100 micrometers 
 emitt_x : 0.9 emitt_y : 0.02  (mm.mrad) 
 beta_x : 12000 beta_y : 120 (micrometers) 
 offset_x : -5 nm ; offset_y : -0.2 nm ; offset_z : -0 micrometers 
 waist_x : 0 waist_y : 0 (micrometers) 
 angle_x : 0 angle_y : 0 angle_phi : 0 (radians) 
 type of distribution charge :  dist_x : 0 dist_z : 0
 initial polarization (ONLY FOR bmt_precession = 1 and internally generated beam) : polar_x = 0 polar_y = 0 polar_z = 0
                                         
 *********************************************************************** 
 ------------- SWITCHES :  ------------ 
             
charge_sign = -1
bmt_precession = 1
ST_spin_flip = 0
do_bds_spin_rotation = 0
automatic_grid_sizing = 0
integration_method = 2 force_symmetric = 0
rndm_load = 0rndm_save = 1 rndm_seed = 167815
do_photons.1 = 1 do_photons.2 = 1
write_photons = 1
do_comp = 0 do_prod = 0
electron_ratio = 1
compt_x_min = 1 compt_emax = 100 GeV ; compt_scale = 1
do_lumi = 1num_lumi = 100000 lumi_p = 1e-29
do_cross = 0 do_isr = 0 do_espread = 1
photon_ratio = 1
do_hadrons = 1 store_hadrons = 0 hadron_ratio = 100000
do_jets = 1 store_jets = 0
do_pairs = 1 load_events = 0
track_pairs = 1 pair_step = 1
store_pairs = 1
bhabha_scal = 1e-29 bhabha_ecmload = 500 GeV 
do_muons = 0 track_muons = 0 store_muons = 0
muon_ratio = 1 muon_scale = 1 muon_ecut = 0.105
do_coherent = 1
do_trident = 0
emin = 0
grids = 7
pair_ecut = 0 GeV 
pair_ratio = 1
bhabha_ratio = 1
pair_q2 = 1
beam_pair = 0
jet_ratio = 100000
jet_ptmin = 2
jet_pythia = 0
jet_log = 1
beam_size = 1 beam_size_scale = 1 ext_field = 0
espread.1 = 0.003 which_espread.1 = 1 espread.2 = 0.003 which_espread.2 = 1
f_rep = 120 n_b = 133
                                         
 *********************************************************************** 
 ------------- grid parameters ------------ 
             
n_x = 128 n_y = 640
n_z = 25 n_t = 1
n_m.1 = 100000 n_m.2 = 100000
cut_x = 2521.44 nm ; cut_y = 200.466 nm ; cut_z = 310 micrometers 

 ...................................................... 
 relative amount of interacting particles that were outside the grid during one time step : 
beam 1 : miss = 0  beam 2 : miss = 0
 number of interacting part. that were outside the grid during one time step : 
out.1=0;out.2=0;
                                         
 *********************************************************************** 
 ------------- beam1 ------------ 
             
 ---------- particle beam : 
 total number of coherent particles is 0 with 0 GeV 
 number of tracked macroparticles : 99807
average energy loss of the beam particles (GeV) : de = 4.15569
 ---photon statistics : 
 initial : 
 initial average photon energy (GeV) phot-e1 : 3.06966
 initial number of phot. per tracked macropart.1 : 1.35379
 final : 
 final average photon energy (GeV) phot-e1 : 3.06966
 final number of phot. per tracked macropart.1 : 1.35379

phot-e1=3.06966;n_phot1=1.35379;
de1=4.15569;
                                         
 *********************************************************************** 
 ------------- beam2 ------------ 
             
 ---------- particle beam : 
 total number of coherent particles is 0 with 0 GeV 
 number of tracked macroparticles : 99796
average energy loss of the beam particles (GeV) : de = 4.20187
 ---photon statistics : 
 initial : 
 initial average photon energy (GeV) phot-e2 : 3.10392
 initial number of phot. per tracked macropart.2 : 1.35373
 final : 
 final average photon energy (GeV) phot-e2 : 3.10392
 final number of phot. per tracked macropart.2 : 1.35373

phot-e2=3.10392;n_phot2=1.35373;
de2=4.20187;
                                         
 *********************************************************************** 
 ------------- coherent particles results ------------ 
             
coherent.sum=0;
coherent.sumeng=0;
coherent.upsmax=1.14088e-06;
coherent.probmax=1.30338e-11;
coherent.count=0;
coherent.total_energy=0;
                                         
 *********************************************************************** 
 -------------  results for pairs  ------------ 
             
nb of pairs per bunch crossing : n_pairs = 44778 total energy e_pairs = 56214 GeV 

 Breit-Wheeler process : n_BW = 1099.51 e_BW = 618.654 GeV 
 Bethe-Heitler process : n_BH = 25729.1 e_BH = 39831.5 GeV 
 Landau-Lifschitz process : n_LL = 17459.1 e_LL = 15107.4 GeV 

 total nb (and total energy, in GeV) of the particles due to the 3 processes : 
n.1 = 22099 b.1 = 27691.1
n.2 = 22188.7 b.2 = 27866.4

 nb of particles (and energy in GeV) due to thr 3 previous processes with a transverse momentum of more than 20 MeV and an angle with respect to the beam axis of more than 150 mrad : 
n_pt=13.8624;e_pt=1.54656;
n_pairs=44778;e_pairs=56214;
                                         
 *********************************************************************** 
 ------------- jets results ------------ 
             
 nb of minijet evts per bx due to the direct process : jets0 = 0.00132824
nb of minijet evts per bx due to the once resolved process : jets1 = 0.000987789
nb of minijet evts per bx due to the twice resolved process : jets2 = 0.00251459
                                         
 *********************************************************************** 
 ------------- general results ------------ 
             
lumi_fine = 7.65392e+33 m**(-2) (from charge densities) 
lumi_ee = 7.72926e+33 m**(-2) (from beam particles collisions)
lumi_ee_high = 7.72926e+33 1/m2 (per bunch cross. above energy ecm_min)
lumi_pp = 3.86463e+33 m**(-2) 
lumi_eg = 3.49641e+33 m**(-2) (e - gamma) 
lumi_ge = 3.48457e+33 m**(-2) ( gamma - e) 
lumi_gg = 1.99277e+33 m**(-2) (gamma - gamma) 
lumi_gg_high = 1.99277e+33 1/m2 (gamma - gamma, with c.o.m energy more than gg_cut) 
lumi[0][0] = 0
lumi[0][1] = 1.23359e+38
lumi[0][2] = 5.58027e+37
lumi[1][0] = 0
lumi[1][1] = 0
lumi[1][2] = 0
lumi[2][0] = 0
lumi[2][1] = 5.56138e+37
lumi[2][2] = 3.18046e+37
upsmax= 0.269658 (maximal value of the beamstrahlung paramater that occured) 
E_cm = 246.627 E_cm_var = 7.18562
 ............................................... 
 average and RMS angles (x or y) of the particles of each beam after the interaction (microradians) : 
bpm_vx.1=-13.3274;bpm_sig_vx.1=410.258;
bpm_vy.1=-27.5159;bpm_sig_vy.1=75.499;
bpm_vx.2=13.3884;bpm_sig_vx.2=408.26;
bpm_vy.2=27.5709;bpm_sig_vy.2=74.4284;
 average and RMS angles (x or y) including coherent particles of each beam after the interaction (microradians) : 
bpm_vx_coh.1=-13.3274;
bpm_vy_coh.1=-27.5159;
bpm_vx_coh.2=13.3884;
bpm_vy_coh.2=27.5709;
 ............................................... 
 minimal photon-photon center of mass energies for hadronic events (GeV) : 
hadron_cut.1=2;hadron_cut.2=5;hadron_cut.3=10;
 nb of hadronic events per bunch crossing due to the virtual photons in ee collisions : 
hadrons_ee.1=0.0240432;hadrons_ee.2=0.0131456;hadrons_ee.3=0.00788908;
 nb of hadronic evts per bx due to e-gamma collisions 
hadrons_eg.1=0.0212396;hadrons_eg.2=0.0114434;hadrons_eg.3=0.0063187;
 .. due to gamma-e collisions : 
hadrons_ge.1=0.02124;hadrons_ge.2=0.0114608;hadrons_ge.3=0.00632313;
 ... due to gamma-gamma collisions : 
hadrons_gg.1=0.0265905;hadrons_gg.2=0.0134767;hadrons_gg.3=0.00608216;
 ... due to all types of collisions : 
hadrons_sum.1=0.0931133;hadrons_sum.2=0.0495266;hadrons_sum.3=0.0266131;
 ............................................... 

lumi_ee=7.72926e+33;
lumi_ee_high=7.72926e+33;
step   lumi total   lumi peak 
1  6.33084e+27  6.33084e+27
2  2.67478e+28  2.67478e+28
3  7.51787e+28  7.51787e+28
4  1.8217e+29  1.8217e+29
5  4.40785e+29  4.40785e+29
6  8.90432e+29  8.90432e+29
7  1.76409e+30  1.76409e+30
8  3.30106e+30  3.30106e+30
9  5.78781e+30  5.78781e+30
10  9.94321e+30  9.94321e+30
11  1.64553e+31  1.64553e+31
12  2.64589e+31  2.64589e+31
13  4.13274e+31  4.13274e+31
14  6.341e+31  6.341e+31
15  9.67714e+31  9.67714e+31
16  1.45555e+32  1.45555e+32
17  2.10199e+32  2.10199e+32
18  2.75507e+32  2.75507e+32
19  3.35368e+32  3.35368e+32
20  4.00398e+32  4.00398e+32
21  4.80247e+32  4.80247e+32
22  5.52795e+32  5.52795e+32
23  5.90048e+32  5.90048e+32
24  5.95792e+32  5.95792e+32
25  5.94619e+32  5.94619e+32
26  5.86164e+32  5.86164e+32
27  5.49339e+32  5.49339e+32
28  4.8878e+32  4.8878e+32
29  4.18121e+32  4.18121e+32
30  3.46815e+32  3.46815e+32
31  2.75172e+32  2.75172e+32
32  2.069e+32  2.069e+32
33  1.50312e+32  1.50312e+32
34  1.01554e+32  1.01554e+32
35  6.56918e+31  6.56918e+31
36  4.09982e+31  4.09982e+31
37  2.37943e+31  2.37943e+31
38  1.35254e+31  1.35254e+31
39  7.68991e+30  7.68991e+30
40  3.82335e+30  3.82335e+30
41  1.84671e+30  1.84671e+30
42  8.74605e+29  8.74605e+29
43  3.20815e+29  3.20815e+29
44  1.09049e+29  1.09049e+29
45  4.13087e+28  4.13087e+28
46  1.48775e+28  1.48775e+28
47  5.38121e+27  5.38121e+27
48  1.26617e+27  1.26617e+27
49  1.58271e+26  1.58271e+26
                                         
 *********************************************************************** 
 ------------- other information  ------------ 
             
 initial pairs are saved on file : pairs0.dat
 pairs are saved on file : pairs.dat
 jets are saved on file : minijet.dat
99807 particles are saved on file : beam1.dat
99796 particles are saved on file : beam2.dat
 coherent particles of beam1 are saved on file : coh1.dat
 coherent particles of beam2 are saved on file : coh2.dat
 trident particles of beam1 are saved on file : tri1.dat
 trident particles of beam2 are saved on file : tri2.dat
