****************************************************** 
* guineapig++ Version 1.2.2
* Program written by Daniel Schulte at DESY and CERN 
* object oriented by Guy Le Meur at LAL-Orsay 
* contributions from C. Rimbault at LAL-Orsay 
* B. Dalena, J. Esberg and J. Snuverink at CERN
*
* Compiled with FFTW:  FFTW3 
**************************************************** 

                                         
 *********************************************************************** 
 -------------  beam parameter 1 ------------ 
             
 energy : 125 GeV ; particles : 6.25e+09
  sigma_x  : 210.12 nm ;  sigma_y : 3.13228 nm ; sigma_z : 100 micrometers 
 emitt_x : 0.9 emitt_y : 0.02  (mm.mrad) 
 beta_x : 12000 beta_y : 120 (micrometers) 
 offset_x : 5 nm ; offset_y : 0.2 nm ; offset_z : 0 micrometers 
 waist_x : 0 waist_y : 0 (micrometers) 
 angle_x : 0 angle_y : 0 angle_phi : 0 (radians) 
 type of distribution charge :  dist_x : 0 dist_z : 0
 initial polarization (ONLY FOR bmt_precession = 1 and internally generated beam) : polar_x = 0 polar_y = 0 polar_z = -0.8
                                         
 *********************************************************************** 
 -------------  beam parameter 2 ------------ 
             
 energy : 125 GeV ; particles : 6.25e+09
  sigma_x  : 210.12 nm ;  sigma_y : 3.13228 nm ; sigma_z : 100 micrometers 
 emitt_x : 0.9 emitt_y : 0.02  (mm.mrad) 
 beta_x : 12000 beta_y : 120 (micrometers) 
 offset_x : -5 nm ; offset_y : -0.2 nm ; offset_z : -0 micrometers 
 waist_x : 0 waist_y : 0 (micrometers) 
 angle_x : 0 angle_y : 0 angle_phi : 0 (radians) 
 type of distribution charge :  dist_x : 0 dist_z : 0
 initial polarization (ONLY FOR bmt_precession = 1 and internally generated beam) : polar_x = 0 polar_y = 0 polar_z = 0
                                         
 *********************************************************************** 
 ------------- SWITCHES :  ------------ 
             
charge_sign = -1
bmt_precession = 1
ST_spin_flip = 0
do_bds_spin_rotation = 0
automatic_grid_sizing = 0
integration_method = 2 force_symmetric = 0
rndm_load = 0rndm_save = 1 rndm_seed = 293959
do_photons.1 = 1 do_photons.2 = 1
write_photons = 1
do_comp = 0 do_prod = 0
electron_ratio = 1
compt_x_min = 1 compt_emax = 100 GeV ; compt_scale = 1
do_lumi = 1num_lumi = 100000 lumi_p = 1e-29
do_cross = 0 do_isr = 0 do_espread = 1
photon_ratio = 1
do_hadrons = 1 store_hadrons = 0 hadron_ratio = 100000
do_jets = 1 store_jets = 0
do_pairs = 1 load_events = 0
track_pairs = 1 pair_step = 1
store_pairs = 1
bhabha_scal = 1e-29 bhabha_ecmload = 500 GeV 
do_muons = 0 track_muons = 0 store_muons = 0
muon_ratio = 1 muon_scale = 1 muon_ecut = 0.105
do_coherent = 1
do_trident = 0
emin = 0
grids = 7
pair_ecut = 0 GeV 
pair_ratio = 1
bhabha_ratio = 1
pair_q2 = 1
beam_pair = 0
jet_ratio = 100000
jet_ptmin = 2
jet_pythia = 0
jet_log = 1
beam_size = 1 beam_size_scale = 1 ext_field = 0
espread.1 = 0.003 which_espread.1 = 1 espread.2 = 0.003 which_espread.2 = 1
f_rep = 120 n_b = 133
                                         
 *********************************************************************** 
 ------------- grid parameters ------------ 
             
n_x = 128 n_y = 640
n_z = 25 n_t = 1
n_m.1 = 100000 n_m.2 = 100000
cut_x = 2521.44 nm ; cut_y = 200.466 nm ; cut_z = 310 micrometers 

 ...................................................... 
 relative amount of interacting particles that were outside the grid during one time step : 
beam 1 : miss = 0  beam 2 : miss = 0
 number of interacting part. that were outside the grid during one time step : 
out.1=0;out.2=0;
                                         
 *********************************************************************** 
 ------------- beam1 ------------ 
             
 ---------- particle beam : 
 total number of coherent particles is 0 with 0 GeV 
 number of tracked macroparticles : 99825
average energy loss of the beam particles (GeV) : de = 4.24247
 ---photon statistics : 
 initial : 
 initial average photon energy (GeV) phot-e1 : 3.12236
 initial number of phot. per tracked macropart.1 : 1.35874
 final : 
 final average photon energy (GeV) phot-e1 : 3.12236
 final number of phot. per tracked macropart.1 : 1.35874

phot-e1=3.12236;n_phot1=1.35874;
de1=4.24247;
                                         
 *********************************************************************** 
 ------------- beam2 ------------ 
             
 ---------- particle beam : 
 total number of coherent particles is 0 with 0 GeV 
 number of tracked macroparticles : 99814
average energy loss of the beam particles (GeV) : de = 4.22092
 ---photon statistics : 
 initial : 
 initial average photon energy (GeV) phot-e2 : 3.11588
 initial number of phot. per tracked macropart.2 : 1.35465
 final : 
 final average photon energy (GeV) phot-e2 : 3.11588
 final number of phot. per tracked macropart.2 : 1.35465

phot-e2=3.11588;n_phot2=1.35465;
de2=4.22092;
                                         
 *********************************************************************** 
 ------------- coherent particles results ------------ 
             
coherent.sum=0;
coherent.sumeng=0;
coherent.upsmax=1.10545e-06;
coherent.probmax=2.6182e-13;
coherent.count=0;
coherent.total_energy=0;
                                         
 *********************************************************************** 
 -------------  results for pairs  ------------ 
             
nb of pairs per bunch crossing : n_pairs = 43066 total energy e_pairs = 54516.2 GeV 

 Breit-Wheeler process : n_BW = 1085.59 e_BW = 621.68 GeV 
 Bethe-Heitler process : n_BH = 25120.9 e_BH = 39275.8 GeV 
 Landau-Lifschitz process : n_LL = 16979.7 e_LL = 14528.4 GeV 

 total nb (and total energy, in GeV) of the particles due to the 3 processes : 
n.1 = 21642.2 b.1 = 27296.2
n.2 = 21544 b.2 = 27129.7

 nb of particles (and energy in GeV) due to thr 3 previous processes with a transverse momentum of more than 20 MeV and an angle with respect to the beam axis of more than 150 mrad : 
n_pt=13.537;e_pt=1.50794;
n_pairs=43066;e_pairs=54516.2;
                                         
 *********************************************************************** 
 ------------- jets results ------------ 
             
 nb of minijet evts per bx due to the direct process : jets0 = 0.00129494
nb of minijet evts per bx due to the once resolved process : jets1 = 0.000967671
nb of minijet evts per bx due to the twice resolved process : jets2 = 0.00246627
                                         
 *********************************************************************** 
 ------------- general results ------------ 
             
lumi_fine = 7.42044e+33 m**(-2) (from charge densities) 
lumi_ee = 7.49099e+33 m**(-2) (from beam particles collisions)
lumi_ee_high = 7.49099e+33 1/m2 (per bunch cross. above energy ecm_min)
lumi_pp = 3.74549e+33 m**(-2) 
lumi_eg = 3.39529e+33 m**(-2) (e - gamma) 
lumi_ge = 3.40685e+33 m**(-2) ( gamma - e) 
lumi_gg = 1.95484e+33 m**(-2) (gamma - gamma) 
lumi_gg_high = 1.95484e+33 1/m2 (gamma - gamma, with c.o.m energy more than gg_cut) 
lumi[0][0] = 0
lumi[0][1] = 1.19556e+38
lumi[0][2] = 5.41888e+37
lumi[1][0] = 0
lumi[1][1] = 0
lumi[1][2] = 0
lumi[2][0] = 0
lumi[2][1] = 5.43733e+37
lumi[2][2] = 3.11993e+37
upsmax= 0.27337 (maximal value of the beamstrahlung paramater that occured) 
E_cm = 246.639 E_cm_var = 7.2103
 ............................................... 
 average and RMS angles (x or y) of the particles of each beam after the interaction (microradians) : 
bpm_vx.1=-18.7096;bpm_sig_vx.1=407.341;
bpm_vy.1=-26.722;bpm_sig_vy.1=78.2091;
bpm_vx.2=18.5737;bpm_sig_vx.2=407.802;
bpm_vy.2=26.7981;bpm_sig_vy.2=77.8486;
 average and RMS angles (x or y) including coherent particles of each beam after the interaction (microradians) : 
bpm_vx_coh.1=-18.7096;
bpm_vy_coh.1=-26.722;
bpm_vx_coh.2=18.5737;
bpm_vy_coh.2=26.7981;
 ............................................... 
 minimal photon-photon center of mass energies for hadronic events (GeV) : 
hadron_cut.1=2;hadron_cut.2=5;hadron_cut.3=10;
 nb of hadronic events per bunch crossing due to the virtual photons in ee collisions : 
hadrons_ee.1=0.0232112;hadrons_ee.2=0.0126549;hadrons_ee.3=0.00757964;
 nb of hadronic evts per bx due to e-gamma collisions 
hadrons_eg.1=0.0206323;hadrons_eg.2=0.0111063;hadrons_eg.3=0.00613197;
 .. due to gamma-e collisions : 
hadrons_ge.1=0.0207226;hadrons_ge.2=0.0111927;hadrons_ge.3=0.00618916;
 ... due to gamma-gamma collisions : 
hadrons_gg.1=0.0261297;hadrons_gg.2=0.0133377;hadrons_gg.3=0.00607166;
 ... due to all types of collisions : 
hadrons_sum.1=0.0906958;hadrons_sum.2=0.0482915;hadrons_sum.3=0.0259724;
 ............................................... 

lumi_ee=7.49099e+33;
lumi_ee_high=7.49099e+33;
step   lumi total   lumi peak 
1  6.17257e+27  6.17257e+27
2  2.4532e+28  2.4532e+28
3  7.0114e+28  7.0114e+28
4  1.91033e+29  1.91033e+29
5  4.09763e+29  4.09763e+29
6  8.88691e+29  8.88691e+29
7  1.72642e+30  1.72642e+30
8  3.26624e+30  3.26624e+30
9  5.74096e+30  5.74096e+30
10  9.82499e+30  9.82499e+30
11  1.63869e+31  1.63869e+31
12  2.61237e+31  2.61237e+31
13  4.10196e+31  4.10196e+31
14  6.30461e+31  6.30461e+31
15  9.61949e+31  9.61949e+31
16  1.44954e+32  1.44954e+32
17  2.09431e+32  2.09431e+32
18  2.7418e+32  2.7418e+32
19  3.31966e+32  3.31966e+32
20  3.97234e+32  3.97234e+32
21  4.76063e+32  4.76063e+32
22  5.4609e+32  5.4609e+32
23  5.84221e+32  5.84221e+32
24  5.89969e+32  5.89969e+32
25  5.86224e+32  5.86224e+32
26  5.72927e+32  5.72927e+32
27  5.37078e+32  5.37078e+32
28  4.75043e+32  4.75043e+32
29  4.0183e+32  4.0183e+32
30  3.26518e+32  3.26518e+32
31  2.48662e+32  2.48662e+32
32  1.83606e+32  1.83606e+32
33  1.28354e+32  1.28354e+32
34  8.30634e+31  8.30634e+31
35  5.39568e+31  5.39568e+31
36  3.30637e+31  3.30637e+31
37  1.90387e+31  1.90387e+31
38  1.06239e+31  1.06239e+31
39  5.93041e+30  5.93041e+30
40  3.22176e+30  3.22176e+30
41  1.66137e+30  1.66137e+30
42  7.50837e+29  7.50837e+29
43  2.61147e+29  2.61147e+29
44  9.54374e+28  9.54374e+28
45  3.13376e+28  3.13376e+28
46  1.13955e+28  1.13955e+28
47  4.58986e+27  4.58986e+27
48  1.58271e+27  1.58271e+27
49  7.91355e+26  7.91355e+26
                                         
 *********************************************************************** 
 ------------- other information  ------------ 
             
 initial pairs are saved on file : pairs0.dat
 pairs are saved on file : pairs.dat
 jets are saved on file : minijet.dat
99825 particles are saved on file : beam1.dat
99814 particles are saved on file : beam2.dat
 coherent particles of beam1 are saved on file : coh1.dat
 coherent particles of beam2 are saved on file : coh2.dat
 trident particles of beam1 are saved on file : tri1.dat
 trident particles of beam2 are saved on file : tri2.dat
