****************************************************** 
* guineapig++ Version 1.2.2
* Program written by Daniel Schulte at DESY and CERN 
* object oriented by Guy Le Meur at LAL-Orsay 
* contributions from C. Rimbault at LAL-Orsay 
* B. Dalena, J. Esberg and J. Snuverink at CERN
*
* Compiled with FFTW:  FFTW3 
**************************************************** 

                                         
 *********************************************************************** 
 -------------  beam parameter 1 ------------ 
             
 energy : 125 GeV ; particles : 6.25e+09
  sigma_x  : 210.12 nm ;  sigma_y : 3.13228 nm ; sigma_z : 100 micrometers 
 emitt_x : 0.9 emitt_y : 0.02  (mm.mrad) 
 beta_x : 12000 beta_y : 120 (micrometers) 
 offset_x : 5 nm ; offset_y : 0.2 nm ; offset_z : 0 micrometers 
 waist_x : 0 waist_y : 0 (micrometers) 
 angle_x : 0 angle_y : 0 angle_phi : 0 (radians) 
 type of distribution charge :  dist_x : 0 dist_z : 0
 initial polarization (ONLY FOR bmt_precession = 1 and internally generated beam) : polar_x = 0 polar_y = 0 polar_z = -0.8
                                         
 *********************************************************************** 
 -------------  beam parameter 2 ------------ 
             
 energy : 125 GeV ; particles : 6.25e+09
  sigma_x  : 210.12 nm ;  sigma_y : 3.13228 nm ; sigma_z : 100 micrometers 
 emitt_x : 0.9 emitt_y : 0.02  (mm.mrad) 
 beta_x : 12000 beta_y : 120 (micrometers) 
 offset_x : -5 nm ; offset_y : -0.2 nm ; offset_z : -0 micrometers 
 waist_x : 0 waist_y : 0 (micrometers) 
 angle_x : 0 angle_y : 0 angle_phi : 0 (radians) 
 type of distribution charge :  dist_x : 0 dist_z : 0
 initial polarization (ONLY FOR bmt_precession = 1 and internally generated beam) : polar_x = 0 polar_y = 0 polar_z = 0
                                         
 *********************************************************************** 
 ------------- SWITCHES :  ------------ 
             
charge_sign = -1
bmt_precession = 1
ST_spin_flip = 0
do_bds_spin_rotation = 0
automatic_grid_sizing = 0
integration_method = 2 force_symmetric = 0
rndm_load = 0rndm_save = 1 rndm_seed = 853419
do_photons.1 = 1 do_photons.2 = 1
write_photons = 1
do_comp = 0 do_prod = 0
electron_ratio = 1
compt_x_min = 1 compt_emax = 100 GeV ; compt_scale = 1
do_lumi = 1num_lumi = 100000 lumi_p = 1e-29
do_cross = 0 do_isr = 0 do_espread = 1
photon_ratio = 1
do_hadrons = 1 store_hadrons = 0 hadron_ratio = 100000
do_jets = 1 store_jets = 0
do_pairs = 1 load_events = 0
track_pairs = 1 pair_step = 1
store_pairs = 1
bhabha_scal = 1e-29 bhabha_ecmload = 500 GeV 
do_muons = 0 track_muons = 0 store_muons = 0
muon_ratio = 1 muon_scale = 1 muon_ecut = 0.105
do_coherent = 1
do_trident = 0
emin = 0
grids = 7
pair_ecut = 0 GeV 
pair_ratio = 1
bhabha_ratio = 1
pair_q2 = 1
beam_pair = 0
jet_ratio = 100000
jet_ptmin = 2
jet_pythia = 0
jet_log = 1
beam_size = 1 beam_size_scale = 1 ext_field = 0
espread.1 = 0.003 which_espread.1 = 1 espread.2 = 0.003 which_espread.2 = 1
f_rep = 120 n_b = 133
                                         
 *********************************************************************** 
 ------------- grid parameters ------------ 
             
n_x = 128 n_y = 640
n_z = 25 n_t = 1
n_m.1 = 100000 n_m.2 = 100000
cut_x = 2521.44 nm ; cut_y = 200.466 nm ; cut_z = 310 micrometers 

 ...................................................... 
 relative amount of interacting particles that were outside the grid during one time step : 
beam 1 : miss = 0  beam 2 : miss = 0
 number of interacting part. that were outside the grid during one time step : 
out.1=0;out.2=0;
                                         
 *********************************************************************** 
 ------------- beam1 ------------ 
             
 ---------- particle beam : 
 total number of coherent particles is 0 with 0 GeV 
 number of tracked macroparticles : 99798
average energy loss of the beam particles (GeV) : de = 4.13446
 ---photon statistics : 
 initial : 
 initial average photon energy (GeV) phot-e1 : 3.08773
 initial number of phot. per tracked macropart.1 : 1.33899
 final : 
 final average photon energy (GeV) phot-e1 : 3.08773
 final number of phot. per tracked macropart.1 : 1.33899

phot-e1=3.08773;n_phot1=1.33899;
de1=4.13446;
                                         
 *********************************************************************** 
 ------------- beam2 ------------ 
             
 ---------- particle beam : 
 total number of coherent particles is 0 with 0 GeV 
 number of tracked macroparticles : 99817
average energy loss of the beam particles (GeV) : de = 4.09469
 ---photon statistics : 
 initial : 
 initial average photon energy (GeV) phot-e2 : 3.08453
 initial number of phot. per tracked macropart.2 : 1.32749
 final : 
 final average photon energy (GeV) phot-e2 : 3.08453
 final number of phot. per tracked macropart.2 : 1.32749

phot-e2=3.08453;n_phot2=1.32749;
de2=4.09469;
                                         
 *********************************************************************** 
 ------------- coherent particles results ------------ 
             
coherent.sum=0;
coherent.sumeng=0;
coherent.upsmax=1.09141e-06;
coherent.probmax=1.16473e-10;
coherent.count=0;
coherent.total_energy=0;
                                         
 *********************************************************************** 
 -------------  results for pairs  ------------ 
             
nb of pairs per bunch crossing : n_pairs = 44152 total energy e_pairs = 56982.4 GeV 

 Breit-Wheeler process : n_BW = 1088.71 e_BW = 609.191 GeV 
 Bethe-Heitler process : n_BH = 25602.6 e_BH = 39731.6 GeV 
 Landau-Lifschitz process : n_LL = 17587.8 e_LL = 15089.2 GeV 

 total nb (and total energy, in GeV) of the particles due to the 3 processes : 
n.1 = 22233.5 b.1 = 27851.4
n.2 = 22045.6 b.2 = 27578.6

 nb of particles (and energy in GeV) due to thr 3 previous processes with a transverse momentum of more than 20 MeV and an angle with respect to the beam axis of more than 150 mrad : 
n_pt=13.9046;e_pt=1.5439;
n_pairs=44152;e_pairs=56982.4;
                                         
 *********************************************************************** 
 ------------- jets results ------------ 
             
 nb of minijet evts per bx due to the direct process : jets0 = 0.00131498
nb of minijet evts per bx due to the once resolved process : jets1 = 0.000980974
nb of minijet evts per bx due to the twice resolved process : jets2 = 0.00251144
                                         
 *********************************************************************** 
 ------------- general results ------------ 
             
lumi_fine = 7.71253e+33 m**(-2) (from charge densities) 
lumi_ee = 7.7893e+33 m**(-2) (from beam particles collisions)
lumi_ee_high = 7.7893e+33 1/m2 (per bunch cross. above energy ecm_min)
lumi_pp = 3.89465e+33 m**(-2) 
lumi_eg = 3.44936e+33 m**(-2) (e - gamma) 
lumi_ge = 3.49161e+33 m**(-2) ( gamma - e) 
lumi_gg = 1.95057e+33 m**(-2) (gamma - gamma) 
lumi_gg_high = 1.95057e+33 1/m2 (gamma - gamma, with c.o.m energy more than gg_cut) 
lumi[0][0] = 0
lumi[0][1] = 1.24317e+38
lumi[0][2] = 5.50518e+37
lumi[1][0] = 0
lumi[1][1] = 0
lumi[1][2] = 0
lumi[2][0] = 0
lumi[2][1] = 5.57261e+37
lumi[2][2] = 3.11311e+37
upsmax= 0.262617 (maximal value of the beamstrahlung paramater that occured) 
E_cm = 246.626 E_cm_var = 7.2199
 ............................................... 
 average and RMS angles (x or y) of the particles of each beam after the interaction (microradians) : 
bpm_vx.1=-13.8687;bpm_sig_vx.1=403.275;
bpm_vy.1=-26.2864;bpm_sig_vy.1=73.0966;
bpm_vx.2=13.877;bpm_sig_vx.2=407.781;
bpm_vy.2=26.2097;bpm_sig_vy.2=71.2559;
 average and RMS angles (x or y) including coherent particles of each beam after the interaction (microradians) : 
bpm_vx_coh.1=-13.8687;
bpm_vy_coh.1=-26.2864;
bpm_vx_coh.2=13.877;
bpm_vy_coh.2=26.2097;
 ............................................... 
 minimal photon-photon center of mass energies for hadronic events (GeV) : 
hadron_cut.1=2;hadron_cut.2=5;hadron_cut.3=10;
 nb of hadronic events per bunch crossing due to the virtual photons in ee collisions : 
hadrons_ee.1=0.0240629;hadrons_ee.2=0.013141;hadrons_ee.3=0.00787607;
 nb of hadronic evts per bx due to e-gamma collisions 
hadrons_eg.1=0.0209283;hadrons_eg.2=0.0112603;hadrons_eg.3=0.00620651;
 .. due to gamma-e collisions : 
hadrons_ge.1=0.0211779;hadrons_ge.2=0.0114092;hadrons_ge.3=0.00628857;
 ... due to gamma-gamma collisions : 
hadrons_gg.1=0.0258991;hadrons_gg.2=0.0131267;hadrons_gg.3=0.0059341;
 ... due to all types of collisions : 
hadrons_sum.1=0.0920681;hadrons_sum.2=0.0489371;hadrons_sum.3=0.0263053;
 ............................................... 

lumi_ee=7.7893e+33;
lumi_ee_high=7.7893e+33;
step   lumi total   lumi peak 
1  5.85602e+27  5.85602e+27
2  2.59564e+28  2.59564e+28
3  6.99558e+28  6.99558e+28
4  1.9958e+29  1.9958e+29
5  4.35878e+29  4.35878e+29
6  9.20662e+29  9.20662e+29
7  1.79068e+30  1.79068e+30
8  3.33113e+30  3.33113e+30
9  5.89686e+30  5.89686e+30
10  1.0028e+31  1.0028e+31
11  1.66104e+31  1.66104e+31
12  2.65833e+31  2.65833e+31
13  4.12818e+31  4.12818e+31
14  6.31807e+31  6.31807e+31
15  9.65217e+31  9.65217e+31
16  1.45306e+32  1.45306e+32
17  2.09697e+32  2.09697e+32
18  2.75541e+32  2.75541e+32
19  3.35959e+32  3.35959e+32
20  3.99434e+32  3.99434e+32
21  4.77411e+32  4.77411e+32
22  5.48948e+32  5.48948e+32
23  5.8752e+32  5.8752e+32
24  5.96097e+32  5.96097e+32
25  5.95429e+32  5.95429e+32
26  5.89862e+32  5.89862e+32
27  5.51154e+32  5.51154e+32
28  4.90883e+32  4.90883e+32
29  4.24025e+32  4.24025e+32
30  3.54894e+32  3.54894e+32
31  2.83104e+32  2.83104e+32
32  2.16949e+32  2.16949e+32
33  1.58495e+32  1.58495e+32
34  1.08633e+32  1.08633e+32
35  7.12226e+31  7.12226e+31
36  4.47234e+31  4.47234e+31
37  2.62586e+31  2.62586e+31
38  1.50775e+31  1.50775e+31
39  8.17723e+30  8.17723e+30
40  4.23327e+30  4.23327e+30
41  2.00007e+30  2.00007e+30
42  8.6321e+29  8.6321e+29
43  3.3411e+29  3.3411e+29
44  1.16329e+29  1.16329e+29
45  4.57403e+28  4.57403e+28
46  1.89925e+28  1.89925e+28
47  6.33084e+27  6.33084e+27
48  1.1079e+27  1.1079e+27
49  9.49626e+26  9.49626e+26
                                         
 *********************************************************************** 
 ------------- other information  ------------ 
             
 initial pairs are saved on file : pairs0.dat
 pairs are saved on file : pairs.dat
 jets are saved on file : minijet.dat
99798 particles are saved on file : beam1.dat
99817 particles are saved on file : beam2.dat
 coherent particles of beam1 are saved on file : coh1.dat
 coherent particles of beam2 are saved on file : coh2.dat
 trident particles of beam1 are saved on file : tri1.dat
 trident particles of beam2 are saved on file : tri2.dat
