****************************************************** 
* guineapig++ Version 1.2.2
* Program written by Daniel Schulte at DESY and CERN 
* object oriented by Guy Le Meur at LAL-Orsay 
* contributions from C. Rimbault at LAL-Orsay 
* B. Dalena, J. Esberg and J. Snuverink at CERN
*
* Compiled with FFTW:  FFTW3 
**************************************************** 

                                         
 *********************************************************************** 
 -------------  beam parameter 1 ------------ 
             
 energy : 125 GeV ; particles : 6.25e+09
  sigma_x  : 210.12 nm ;  sigma_y : 3.13228 nm ; sigma_z : 100 micrometers 
 emitt_x : 0.9 emitt_y : 0.02  (mm.mrad) 
 beta_x : 12000 beta_y : 120 (micrometers) 
 offset_x : 5 nm ; offset_y : 0.2 nm ; offset_z : 0 micrometers 
 waist_x : 0 waist_y : 0 (micrometers) 
 angle_x : 0 angle_y : 0 angle_phi : 0 (radians) 
 type of distribution charge :  dist_x : 0 dist_z : 0
 initial polarization (ONLY FOR bmt_precession = 1 and internally generated beam) : polar_x = 0 polar_y = 0 polar_z = -0.8
                                         
 *********************************************************************** 
 -------------  beam parameter 2 ------------ 
             
 energy : 125 GeV ; particles : 6.25e+09
  sigma_x  : 210.12 nm ;  sigma_y : 3.13228 nm ; sigma_z : 100 micrometers 
 emitt_x : 0.9 emitt_y : 0.02  (mm.mrad) 
 beta_x : 12000 beta_y : 120 (micrometers) 
 offset_x : -5 nm ; offset_y : -0.2 nm ; offset_z : -0 micrometers 
 waist_x : 0 waist_y : 0 (micrometers) 
 angle_x : 0 angle_y : 0 angle_phi : 0 (radians) 
 type of distribution charge :  dist_x : 0 dist_z : 0
 initial polarization (ONLY FOR bmt_precession = 1 and internally generated beam) : polar_x = 0 polar_y = 0 polar_z = 0
                                         
 *********************************************************************** 
 ------------- SWITCHES :  ------------ 
             
charge_sign = -1
bmt_precession = 1
ST_spin_flip = 0
do_bds_spin_rotation = 0
automatic_grid_sizing = 0
integration_method = 2 force_symmetric = 0
rndm_load = 0rndm_save = 1 rndm_seed = 363828
do_photons.1 = 1 do_photons.2 = 1
write_photons = 1
do_comp = 0 do_prod = 0
electron_ratio = 1
compt_x_min = 1 compt_emax = 100 GeV ; compt_scale = 1
do_lumi = 1num_lumi = 100000 lumi_p = 1e-29
do_cross = 0 do_isr = 0 do_espread = 1
photon_ratio = 1
do_hadrons = 1 store_hadrons = 0 hadron_ratio = 100000
do_jets = 1 store_jets = 0
do_pairs = 1 load_events = 0
track_pairs = 1 pair_step = 1
store_pairs = 1
bhabha_scal = 1e-29 bhabha_ecmload = 500 GeV 
do_muons = 0 track_muons = 0 store_muons = 0
muon_ratio = 1 muon_scale = 1 muon_ecut = 0.105
do_coherent = 1
do_trident = 0
emin = 0
grids = 7
pair_ecut = 0 GeV 
pair_ratio = 1
bhabha_ratio = 1
pair_q2 = 1
beam_pair = 0
jet_ratio = 100000
jet_ptmin = 2
jet_pythia = 0
jet_log = 1
beam_size = 1 beam_size_scale = 1 ext_field = 0
espread.1 = 0.003 which_espread.1 = 1 espread.2 = 0.003 which_espread.2 = 1
f_rep = 120 n_b = 133
                                         
 *********************************************************************** 
 ------------- grid parameters ------------ 
             
n_x = 128 n_y = 640
n_z = 25 n_t = 1
n_m.1 = 100000 n_m.2 = 100000
cut_x = 2521.44 nm ; cut_y = 200.466 nm ; cut_z = 310 micrometers 

 ...................................................... 
 relative amount of interacting particles that were outside the grid during one time step : 
beam 1 : miss = 0  beam 2 : miss = 0
 number of interacting part. that were outside the grid during one time step : 
out.1=0;out.2=0;
                                         
 *********************************************************************** 
 ------------- beam1 ------------ 
             
 ---------- particle beam : 
 total number of coherent particles is 0 with 0 GeV 
 number of tracked macroparticles : 99823
average energy loss of the beam particles (GeV) : de = 4.15104
 ---photon statistics : 
 initial : 
 initial average photon energy (GeV) phot-e1 : 3.10754
 initial number of phot. per tracked macropart.1 : 1.33579
 final : 
 final average photon energy (GeV) phot-e1 : 3.10754
 final number of phot. per tracked macropart.1 : 1.33579

phot-e1=3.10754;n_phot1=1.33579;
de1=4.15104;
                                         
 *********************************************************************** 
 ------------- beam2 ------------ 
             
 ---------- particle beam : 
 total number of coherent particles is 0 with 0 GeV 
 number of tracked macroparticles : 99833
average energy loss of the beam particles (GeV) : de = 4.16874
 ---photon statistics : 
 initial : 
 initial average photon energy (GeV) phot-e2 : 3.10228
 initial number of phot. per tracked macropart.2 : 1.34376
 final : 
 final average photon energy (GeV) phot-e2 : 3.10228
 final number of phot. per tracked macropart.2 : 1.34376

phot-e2=3.10228;n_phot2=1.34376;
de2=4.16874;
                                         
 *********************************************************************** 
 ------------- coherent particles results ------------ 
             
coherent.sum=0;
coherent.sumeng=0;
coherent.upsmax=1.11832e-06;
coherent.probmax=7.96999e-13;
coherent.count=0;
coherent.total_energy=0;
                                         
 *********************************************************************** 
 -------------  results for pairs  ------------ 
             
nb of pairs per bunch crossing : n_pairs = 44322 total energy e_pairs = 55747.3 GeV 

 Breit-Wheeler process : n_BW = 1130.16 e_BW = 632.481 GeV 
 Bethe-Heitler process : n_BH = 26042 e_BH = 40597.3 GeV 
 Landau-Lifschitz process : n_LL = 17746.9 e_LL = 15326.2 GeV 

 total nb (and total energy, in GeV) of the particles due to the 3 processes : 
n.1 = 22386.3 b.1 = 28142.5
n.2 = 22532.7 b.2 = 28413.5

 nb of particles (and energy in GeV) due to thr 3 previous processes with a transverse momentum of more than 20 MeV and an angle with respect to the beam axis of more than 150 mrad : 
n_pt=14.0361;e_pt=1.56404;
n_pairs=44322;e_pairs=55747.3;
                                         
 *********************************************************************** 
 ------------- jets results ------------ 
             
 nb of minijet evts per bx due to the direct process : jets0 = 0.00134404
nb of minijet evts per bx due to the once resolved process : jets1 = 0.00100371
nb of minijet evts per bx due to the twice resolved process : jets2 = 0.00256131
                                         
 *********************************************************************** 
 ------------- general results ------------ 
             
lumi_fine = 7.78503e+33 m**(-2) (from charge densities) 
lumi_ee = 7.86325e+33 m**(-2) (from beam particles collisions)
lumi_ee_high = 7.86325e+33 1/m2 (per bunch cross. above energy ecm_min)
lumi_pp = 3.93162e+33 m**(-2) 
lumi_eg = 3.55524e+33 m**(-2) (e - gamma) 
lumi_ge = 3.52063e+33 m**(-2) ( gamma - e) 
lumi_gg = 2.00815e+33 m**(-2) (gamma - gamma) 
lumi_gg_high = 2.00815e+33 1/m2 (gamma - gamma, with c.o.m energy more than gg_cut) 
lumi[0][0] = 0
lumi[0][1] = 1.25497e+38
lumi[0][2] = 5.67416e+37
lumi[1][0] = 0
lumi[1][1] = 0
lumi[1][2] = 0
lumi[2][0] = 0
lumi[2][1] = 5.61892e+37
lumi[2][2] = 3.205e+37
upsmax= 0.267048 (maximal value of the beamstrahlung paramater that occured) 
E_cm = 246.572 E_cm_var = 7.28347
 ............................................... 
 average and RMS angles (x or y) of the particles of each beam after the interaction (microradians) : 
bpm_vx.1=-16.0707;bpm_sig_vx.1=407.831;
bpm_vy.1=-27.0604;bpm_sig_vy.1=72.4045;
bpm_vx.2=15.9046;bpm_sig_vx.2=411.158;
bpm_vy.2=27.2163;bpm_sig_vy.2=74.1627;
 average and RMS angles (x or y) including coherent particles of each beam after the interaction (microradians) : 
bpm_vx_coh.1=-16.0707;
bpm_vy_coh.1=-27.0604;
bpm_vx_coh.2=15.9046;
bpm_vy_coh.2=27.2163;
 ............................................... 
 minimal photon-photon center of mass energies for hadronic events (GeV) : 
hadron_cut.1=2;hadron_cut.2=5;hadron_cut.3=10;
 nb of hadronic events per bunch crossing due to the virtual photons in ee collisions : 
hadrons_ee.1=0.0243945;hadrons_ee.2=0.0133137;hadrons_ee.3=0.00797999;
 nb of hadronic evts per bx due to e-gamma collisions 
hadrons_eg.1=0.0216028;hadrons_eg.2=0.011638;hadrons_eg.3=0.0064258;
 .. due to gamma-e collisions : 
hadrons_ge.1=0.0214701;hadrons_ge.2=0.011575;hadrons_ge.3=0.0063887;
 ... due to gamma-gamma collisions : 
hadrons_gg.1=0.0267118;hadrons_gg.2=0.0135953;hadrons_gg.3=0.00616831;
 ... due to all types of collisions : 
hadrons_sum.1=0.0941791;hadrons_sum.2=0.0501219;hadrons_sum.3=0.0269628;
 ............................................... 

lumi_ee=7.86325e+33;
lumi_ee_high=7.86325e+33;
step   lumi total   lumi peak 
1  6.80565e+27  6.80565e+27
2  2.6273e+28  2.6273e+28
3  8.13513e+28  8.13513e+28
4  2.1145e+29  2.1145e+29
5  4.51864e+29  4.51864e+29
6  9.23511e+29  9.23511e+29
7  1.78134e+30  1.78134e+30
8  3.31451e+30  3.31451e+30
9  5.85508e+30  5.85508e+30
10  1.0044e+31  1.0044e+31
11  1.65482e+31  1.65482e+31
12  2.66854e+31  2.66854e+31
13  4.1891e+31  4.1891e+31
14  6.4185e+31  6.4185e+31
15  9.78744e+31  9.78744e+31
16  1.47861e+32  1.47861e+32
17  2.11786e+32  2.11786e+32
18  2.76729e+32  2.76729e+32
19  3.3687e+32  3.3687e+32
20  4.02751e+32  4.02751e+32
21  4.86865e+32  4.86865e+32
22  5.57757e+32  5.57757e+32
23  5.95922e+32  5.95922e+32
24  6.01642e+32  6.01642e+32
25  5.99492e+32  5.99492e+32
26  5.95441e+32  5.95441e+32
27  5.56186e+32  5.56186e+32
28  4.95068e+32  4.95068e+32
29  4.24366e+32  4.24366e+32
30  3.54613e+32  3.54613e+32
31  2.84844e+32  2.84844e+32
32  2.19747e+32  2.19747e+32
33  1.60071e+32  1.60071e+32
34  1.08859e+32  1.08859e+32
35  7.2157e+31  7.2157e+31
36  4.52747e+31  4.52747e+31
37  2.73568e+31  2.73568e+31
38  1.5556e+31  1.5556e+31
39  8.3116e+30  8.3116e+30
40  4.37461e+30  4.37461e+30
41  2.07351e+30  2.07351e+30
42  8.48332e+29  8.48332e+29
43  3.52786e+29  3.52786e+29
44  1.2266e+29  1.2266e+29
45  4.58986e+28  4.58986e+28
46  1.75681e+28  1.75681e+28
47  4.9064e+27  4.9064e+27
48  1.74098e+27  1.74098e+27
49  7.91355e+26  7.91355e+26
                                         
 *********************************************************************** 
 ------------- other information  ------------ 
             
 initial pairs are saved on file : pairs0.dat
 pairs are saved on file : pairs.dat
 jets are saved on file : minijet.dat
99823 particles are saved on file : beam1.dat
99833 particles are saved on file : beam2.dat
 coherent particles of beam1 are saved on file : coh1.dat
 coherent particles of beam2 are saved on file : coh2.dat
 trident particles of beam1 are saved on file : tri1.dat
 trident particles of beam2 are saved on file : tri2.dat
