****************************************************** 
* guineapig++ Version 1.2.2
* Program written by Daniel Schulte at DESY and CERN 
* object oriented by Guy Le Meur at LAL-Orsay 
* contributions from C. Rimbault at LAL-Orsay 
* B. Dalena, J. Esberg and J. Snuverink at CERN
*
* Compiled with FFTW:  FFTW3 
**************************************************** 

                                         
 *********************************************************************** 
 -------------  beam parameter 1 ------------ 
             
 energy : 125 GeV ; particles : 6.25e+09
  sigma_x  : 210.12 nm ;  sigma_y : 3.13228 nm ; sigma_z : 100 micrometers 
 emitt_x : 0.9 emitt_y : 0.02  (mm.mrad) 
 beta_x : 12000 beta_y : 120 (micrometers) 
 offset_x : 5 nm ; offset_y : 0.2 nm ; offset_z : 0 micrometers 
 waist_x : 0 waist_y : 0 (micrometers) 
 angle_x : 0 angle_y : 0 angle_phi : 0 (radians) 
 type of distribution charge :  dist_x : 0 dist_z : 0
 initial polarization (ONLY FOR bmt_precession = 1 and internally generated beam) : polar_x = 0 polar_y = 0 polar_z = -0.8
                                         
 *********************************************************************** 
 -------------  beam parameter 2 ------------ 
             
 energy : 125 GeV ; particles : 6.25e+09
  sigma_x  : 210.12 nm ;  sigma_y : 3.13228 nm ; sigma_z : 100 micrometers 
 emitt_x : 0.9 emitt_y : 0.02  (mm.mrad) 
 beta_x : 12000 beta_y : 120 (micrometers) 
 offset_x : -5 nm ; offset_y : -0.2 nm ; offset_z : -0 micrometers 
 waist_x : 0 waist_y : 0 (micrometers) 
 angle_x : 0 angle_y : 0 angle_phi : 0 (radians) 
 type of distribution charge :  dist_x : 0 dist_z : 0
 initial polarization (ONLY FOR bmt_precession = 1 and internally generated beam) : polar_x = 0 polar_y = 0 polar_z = 0
                                         
 *********************************************************************** 
 ------------- SWITCHES :  ------------ 
             
charge_sign = -1
bmt_precession = 1
ST_spin_flip = 0
do_bds_spin_rotation = 0
automatic_grid_sizing = 0
integration_method = 2 force_symmetric = 0
rndm_load = 0rndm_save = 1 rndm_seed = 437002
do_photons.1 = 1 do_photons.2 = 1
write_photons = 1
do_comp = 0 do_prod = 0
electron_ratio = 1
compt_x_min = 1 compt_emax = 100 GeV ; compt_scale = 1
do_lumi = 1num_lumi = 100000 lumi_p = 1e-29
do_cross = 0 do_isr = 0 do_espread = 1
photon_ratio = 1
do_hadrons = 1 store_hadrons = 0 hadron_ratio = 100000
do_jets = 1 store_jets = 0
do_pairs = 1 load_events = 0
track_pairs = 1 pair_step = 1
store_pairs = 1
bhabha_scal = 1e-29 bhabha_ecmload = 500 GeV 
do_muons = 0 track_muons = 0 store_muons = 0
muon_ratio = 1 muon_scale = 1 muon_ecut = 0.105
do_coherent = 1
do_trident = 0
emin = 0
grids = 7
pair_ecut = 0 GeV 
pair_ratio = 1
bhabha_ratio = 1
pair_q2 = 1
beam_pair = 0
jet_ratio = 100000
jet_ptmin = 2
jet_pythia = 0
jet_log = 1
beam_size = 1 beam_size_scale = 1 ext_field = 0
espread.1 = 0.003 which_espread.1 = 1 espread.2 = 0.003 which_espread.2 = 1
f_rep = 120 n_b = 133
                                         
 *********************************************************************** 
 ------------- grid parameters ------------ 
             
n_x = 128 n_y = 640
n_z = 25 n_t = 1
n_m.1 = 100000 n_m.2 = 100000
cut_x = 2521.44 nm ; cut_y = 200.466 nm ; cut_z = 310 micrometers 

 ...................................................... 
 relative amount of interacting particles that were outside the grid during one time step : 
beam 1 : miss = 0  beam 2 : miss = 0
 number of interacting part. that were outside the grid during one time step : 
out.1=0;out.2=0;
                                         
 *********************************************************************** 
 ------------- beam1 ------------ 
             
 ---------- particle beam : 
 total number of coherent particles is 0 with 0 GeV 
 number of tracked macroparticles : 99814
average energy loss of the beam particles (GeV) : de = 4.14076
 ---photon statistics : 
 initial : 
 initial average photon energy (GeV) phot-e1 : 3.07955
 initial number of phot. per tracked macropart.1 : 1.3446
 final : 
 final average photon energy (GeV) phot-e1 : 3.07955
 final number of phot. per tracked macropart.1 : 1.3446

phot-e1=3.07955;n_phot1=1.3446;
de1=4.14076;
                                         
 *********************************************************************** 
 ------------- beam2 ------------ 
             
 ---------- particle beam : 
 total number of coherent particles is 0 with 0 GeV 
 number of tracked macroparticles : 99791
average energy loss of the beam particles (GeV) : de = 4.16635
 ---photon statistics : 
 initial : 
 initial average photon energy (GeV) phot-e2 : 3.10101
 initial number of phot. per tracked macropart.2 : 1.34355
 final : 
 final average photon energy (GeV) phot-e2 : 3.10101
 final number of phot. per tracked macropart.2 : 1.34355

phot-e2=3.10101;n_phot2=1.34355;
de2=4.16635;
                                         
 *********************************************************************** 
 ------------- coherent particles results ------------ 
             
coherent.sum=0;
coherent.sumeng=0;
coherent.upsmax=1.09343e-06;
coherent.probmax=4.71912e-13;
coherent.count=0;
coherent.total_energy=0;
                                         
 *********************************************************************** 
 -------------  results for pairs  ------------ 
             
nb of pairs per bunch crossing : n_pairs = 44466 total energy e_pairs = 56419.5 GeV 

 Breit-Wheeler process : n_BW = 1122.26 e_BW = 633.837 GeV 
 Bethe-Heitler process : n_BH = 25765.6 e_BH = 40012.1 GeV 
 Landau-Lifschitz process : n_LL = 17543.1 e_LL = 15101.5 GeV 

 total nb (and total energy, in GeV) of the particles due to the 3 processes : 
n.1 = 22110.1 b.1 = 27609.5
n.2 = 22320.9 b.2 = 28137.9

 nb of particles (and energy in GeV) due to thr 3 previous processes with a transverse momentum of more than 20 MeV and an angle with respect to the beam axis of more than 150 mrad : 
n_pt=13.9034;e_pt=1.54707;
n_pairs=44466;e_pairs=56419.5;
                                         
 *********************************************************************** 
 ------------- jets results ------------ 
             
 nb of minijet evts per bx due to the direct process : jets0 = 0.0013221
nb of minijet evts per bx due to the once resolved process : jets1 = 0.000985378
nb of minijet evts per bx due to the twice resolved process : jets2 = 0.00251491
                                         
 *********************************************************************** 
 ------------- general results ------------ 
             
lumi_fine = 7.66518e+33 m**(-2) (from charge densities) 
lumi_ee = 7.73947e+33 m**(-2) (from beam particles collisions)
lumi_ee_high = 7.73947e+33 1/m2 (per bunch cross. above energy ecm_min)
lumi_pp = 3.86974e+33 m**(-2) 
lumi_eg = 3.51216e+33 m**(-2) (e - gamma) 
lumi_ge = 3.47367e+33 m**(-2) ( gamma - e) 
lumi_gg = 1.97565e+33 m**(-2) (gamma - gamma) 
lumi_gg_high = 1.97565e+33 1/m2 (gamma - gamma, with c.o.m energy more than gg_cut) 
lumi[0][0] = 0
lumi[0][1] = 1.23522e+38
lumi[0][2] = 5.60541e+37
lumi[1][0] = 0
lumi[1][1] = 0
lumi[1][2] = 0
lumi[2][0] = 0
lumi[2][1] = 5.54397e+37
lumi[2][2] = 3.15314e+37
upsmax= 0.268396 (maximal value of the beamstrahlung paramater that occured) 
E_cm = 246.608 E_cm_var = 7.21286
 ............................................... 
 average and RMS angles (x or y) of the particles of each beam after the interaction (microradians) : 
bpm_vx.1=-13.559;bpm_sig_vx.1=407.541;
bpm_vy.1=-26.1395;bpm_sig_vy.1=73.0712;
bpm_vx.2=13.4951;bpm_sig_vx.2=408.895;
bpm_vy.2=26.1652;bpm_sig_vy.2=71.2269;
 average and RMS angles (x or y) including coherent particles of each beam after the interaction (microradians) : 
bpm_vx_coh.1=-13.559;
bpm_vy_coh.1=-26.1395;
bpm_vx_coh.2=13.4951;
bpm_vy_coh.2=26.1652;
 ............................................... 
 minimal photon-photon center of mass energies for hadronic events (GeV) : 
hadron_cut.1=2;hadron_cut.2=5;hadron_cut.3=10;
 nb of hadronic events per bunch crossing due to the virtual photons in ee collisions : 
hadrons_ee.1=0.023977;hadrons_ee.2=0.0130849;hadrons_ee.3=0.00785029;
 nb of hadronic evts per bx due to e-gamma collisions 
hadrons_eg.1=0.0213814;hadrons_eg.2=0.0115305;hadrons_eg.3=0.00637517;
 .. due to gamma-e collisions : 
hadrons_ge.1=0.0210224;hadrons_ge.2=0.0113109;hadrons_ge.3=0.00622934;
 ... due to gamma-gamma collisions : 
hadrons_gg.1=0.0261783;hadrons_gg.2=0.013283;hadrons_gg.3=0.00599381;
 ... due to all types of collisions : 
hadrons_sum.1=0.0925592;hadrons_sum.2=0.0492093;hadrons_sum.3=0.0264486;
 ............................................... 

lumi_ee=7.73947e+33;
lumi_ee_high=7.73947e+33;
step   lumi total   lumi peak 
1  6.64738e+27  6.64738e+27
2  3.13376e+28  3.13376e+28
3  7.92937e+28  7.92937e+28
4  2.01004e+29  2.01004e+29
5  4.50756e+29  4.50756e+29
6  9.02777e+29  9.02777e+29
7  1.75712e+30  1.75712e+30
8  3.23917e+30  3.23917e+30
9  5.7446e+30  5.7446e+30
10  9.83654e+30  9.83654e+30
11  1.62665e+31  1.62665e+31
12  2.57494e+31  2.57494e+31
13  4.01147e+31  4.01147e+31
14  6.15995e+31  6.15995e+31
15  9.4209e+31  9.4209e+31
16  1.42104e+32  1.42104e+32
17  2.06632e+32  2.06632e+32
18  2.73017e+32  2.73017e+32
19  3.31808e+32  3.31808e+32
20  3.95484e+32  3.95484e+32
21  4.71436e+32  4.71436e+32
22  5.4567e+32  5.4567e+32
23  5.87513e+32  5.87513e+32
24  5.925e+32  5.925e+32
25  5.9019e+32  5.9019e+32
26  5.8507e+32  5.8507e+32
27  5.48941e+32  5.48941e+32
28  4.93478e+32  4.93478e+32
29  4.23455e+32  4.23455e+32
30  3.5233e+32  3.5233e+32
31  2.79708e+32  2.79708e+32
32  2.15266e+32  2.15266e+32
33  1.587e+32  1.587e+32
34  1.08822e+32  1.08822e+32
35  7.30438e+31  7.30438e+31
36  4.57058e+31  4.57058e+31
37  2.66112e+31  2.66112e+31
38  1.54104e+31  1.54104e+31
39  8.35022e+30  8.35022e+30
40  4.38616e+30  4.38616e+30
41  2.15597e+30  2.15597e+30
42  9.42662e+29  9.42662e+29
43  3.58167e+29  3.58167e+29
44  1.35638e+29  1.35638e+29
45  4.21001e+28  4.21001e+28
46  1.36113e+28  1.36113e+28
47  5.22294e+27  5.22294e+27
48  1.26617e+27  1.26617e+27
49  3.16542e+26  3.16542e+26
                                         
 *********************************************************************** 
 ------------- other information  ------------ 
             
 initial pairs are saved on file : pairs0.dat
 pairs are saved on file : pairs.dat
 jets are saved on file : minijet.dat
99814 particles are saved on file : beam1.dat
99791 particles are saved on file : beam2.dat
 coherent particles of beam1 are saved on file : coh1.dat
 coherent particles of beam2 are saved on file : coh2.dat
 trident particles of beam1 are saved on file : tri1.dat
 trident particles of beam2 are saved on file : tri2.dat
