****************************************************** 
* guineapig++ Version 1.2.2
* Program written by Daniel Schulte at DESY and CERN 
* object oriented by Guy Le Meur at LAL-Orsay 
* contributions from C. Rimbault at LAL-Orsay 
* B. Dalena, J. Esberg and J. Snuverink at CERN
*
* Compiled with FFTW:  FFTW3 
**************************************************** 

                                         
 *********************************************************************** 
 -------------  beam parameter 1 ------------ 
             
 energy : 125 GeV ; particles : 6.25e+09
  sigma_x  : 210.12 nm ;  sigma_y : 3.13228 nm ; sigma_z : 100 micrometers 
 emitt_x : 0.9 emitt_y : 0.02  (mm.mrad) 
 beta_x : 12000 beta_y : 120 (micrometers) 
 offset_x : 5 nm ; offset_y : 0.2 nm ; offset_z : 0 micrometers 
 waist_x : 0 waist_y : 0 (micrometers) 
 angle_x : 0 angle_y : 0 angle_phi : 0 (radians) 
 type of distribution charge :  dist_x : 0 dist_z : 0
 initial polarization (ONLY FOR bmt_precession = 1 and internally generated beam) : polar_x = 0 polar_y = 0 polar_z = -0.8
                                         
 *********************************************************************** 
 -------------  beam parameter 2 ------------ 
             
 energy : 125 GeV ; particles : 6.25e+09
  sigma_x  : 210.12 nm ;  sigma_y : 3.13228 nm ; sigma_z : 100 micrometers 
 emitt_x : 0.9 emitt_y : 0.02  (mm.mrad) 
 beta_x : 12000 beta_y : 120 (micrometers) 
 offset_x : -5 nm ; offset_y : -0.2 nm ; offset_z : -0 micrometers 
 waist_x : 0 waist_y : 0 (micrometers) 
 angle_x : 0 angle_y : 0 angle_phi : 0 (radians) 
 type of distribution charge :  dist_x : 0 dist_z : 0
 initial polarization (ONLY FOR bmt_precession = 1 and internally generated beam) : polar_x = 0 polar_y = 0 polar_z = 0
                                         
 *********************************************************************** 
 ------------- SWITCHES :  ------------ 
             
charge_sign = -1
bmt_precession = 1
ST_spin_flip = 0
do_bds_spin_rotation = 0
automatic_grid_sizing = 0
integration_method = 2 force_symmetric = 0
rndm_load = 0rndm_save = 1 rndm_seed = 830198
do_photons.1 = 1 do_photons.2 = 1
write_photons = 1
do_comp = 0 do_prod = 0
electron_ratio = 1
compt_x_min = 1 compt_emax = 100 GeV ; compt_scale = 1
do_lumi = 1num_lumi = 100000 lumi_p = 1e-29
do_cross = 0 do_isr = 0 do_espread = 1
photon_ratio = 1
do_hadrons = 1 store_hadrons = 0 hadron_ratio = 100000
do_jets = 1 store_jets = 0
do_pairs = 1 load_events = 0
track_pairs = 1 pair_step = 1
store_pairs = 1
bhabha_scal = 1e-29 bhabha_ecmload = 500 GeV 
do_muons = 0 track_muons = 0 store_muons = 0
muon_ratio = 1 muon_scale = 1 muon_ecut = 0.105
do_coherent = 1
do_trident = 0
emin = 0
grids = 7
pair_ecut = 0 GeV 
pair_ratio = 1
bhabha_ratio = 1
pair_q2 = 1
beam_pair = 0
jet_ratio = 100000
jet_ptmin = 2
jet_pythia = 0
jet_log = 1
beam_size = 1 beam_size_scale = 1 ext_field = 0
espread.1 = 0.003 which_espread.1 = 1 espread.2 = 0.003 which_espread.2 = 1
f_rep = 120 n_b = 133
                                         
 *********************************************************************** 
 ------------- grid parameters ------------ 
             
n_x = 128 n_y = 640
n_z = 25 n_t = 1
n_m.1 = 100000 n_m.2 = 100000
cut_x = 2521.44 nm ; cut_y = 200.466 nm ; cut_z = 310 micrometers 

 ...................................................... 
 relative amount of interacting particles that were outside the grid during one time step : 
beam 1 : miss = 0  beam 2 : miss = 0
 number of interacting part. that were outside the grid during one time step : 
out.1=0;out.2=0;
                                         
 *********************************************************************** 
 ------------- beam1 ------------ 
             
 ---------- particle beam : 
 total number of coherent particles is 0 with 0 GeV 
 number of tracked macroparticles : 99799
average energy loss of the beam particles (GeV) : de = 4.13593
 ---photon statistics : 
 initial : 
 initial average photon energy (GeV) phot-e1 : 3.0798
 initial number of phot. per tracked macropart.1 : 1.34292
 final : 
 final average photon energy (GeV) phot-e1 : 3.0798
 final number of phot. per tracked macropart.1 : 1.34292

phot-e1=3.0798;n_phot1=1.34292;
de1=4.13593;
                                         
 *********************************************************************** 
 ------------- beam2 ------------ 
             
 ---------- particle beam : 
 total number of coherent particles is 0 with 0 GeV 
 number of tracked macroparticles : 99816
average energy loss of the beam particles (GeV) : de = 4.11925
 ---photon statistics : 
 initial : 
 initial average photon energy (GeV) phot-e2 : 3.07651
 initial number of phot. per tracked macropart.2 : 1.33893
 final : 
 final average photon energy (GeV) phot-e2 : 3.07651
 final number of phot. per tracked macropart.2 : 1.33893

phot-e2=3.07651;n_phot2=1.33893;
de2=4.11925;
                                         
 *********************************************************************** 
 ------------- coherent particles results ------------ 
             
coherent.sum=0;
coherent.sumeng=0;
coherent.upsmax=1.11981e-06;
coherent.probmax=3.56749e-12;
coherent.count=0;
coherent.total_energy=0;
                                         
 *********************************************************************** 
 -------------  results for pairs  ------------ 
             
nb of pairs per bunch crossing : n_pairs = 44658 total energy e_pairs = 55404.9 GeV 

 Breit-Wheeler process : n_BW = 1096.52 e_BW = 627.858 GeV 
 Bethe-Heitler process : n_BH = 26000.2 e_BH = 40318.7 GeV 
 Landau-Lifschitz process : n_LL = 17666.3 e_LL = 15252 GeV 

 total nb (and total energy, in GeV) of the particles due to the 3 processes : 
n.1 = 22422.7 b.1 = 28132.2
n.2 = 22340.3 b.2 = 28066.3

 nb of particles (and energy in GeV) due to thr 3 previous processes with a transverse momentum of more than 20 MeV and an angle with respect to the beam axis of more than 150 mrad : 
n_pt=14.0285;e_pt=1.56326;
n_pairs=44658;e_pairs=55404.9;
                                         
 *********************************************************************** 
 ------------- jets results ------------ 
             
 nb of minijet evts per bx due to the direct process : jets0 = 0.00134158
nb of minijet evts per bx due to the once resolved process : jets1 = 0.000997277
nb of minijet evts per bx due to the twice resolved process : jets2 = 0.00254331
                                         
 *********************************************************************** 
 ------------- general results ------------ 
             
lumi_fine = 7.74585e+33 m**(-2) (from charge densities) 
lumi_ee = 7.82352e+33 m**(-2) (from beam particles collisions)
lumi_ee_high = 7.82352e+33 1/m2 (per bunch cross. above energy ecm_min)
lumi_pp = 3.91176e+33 m**(-2) 
lumi_eg = 3.51661e+33 m**(-2) (e - gamma) 
lumi_ge = 3.54102e+33 m**(-2) ( gamma - e) 
lumi_gg = 2.0043e+33 m**(-2) (gamma - gamma) 
lumi_gg_high = 2.0043e+33 1/m2 (gamma - gamma, with c.o.m energy more than gg_cut) 
lumi[0][0] = 0
lumi[0][1] = 1.24863e+38
lumi[0][2] = 5.61251e+37
lumi[1][0] = 0
lumi[1][1] = 0
lumi[1][2] = 0
lumi[2][0] = 0
lumi[2][1] = 5.65148e+37
lumi[2][2] = 3.19887e+37
upsmax= 0.264594 (maximal value of the beamstrahlung paramater that occured) 
E_cm = 246.602 E_cm_var = 7.22533
 ............................................... 
 average and RMS angles (x or y) of the particles of each beam after the interaction (microradians) : 
bpm_vx.1=-17.516;bpm_sig_vx.1=408.983;
bpm_vy.1=-25.4476;bpm_sig_vy.1=70.1081;
bpm_vx.2=17.6689;bpm_sig_vx.2=409.755;
bpm_vy.2=25.5029;bpm_sig_vy.2=69.209;
 average and RMS angles (x or y) including coherent particles of each beam after the interaction (microradians) : 
bpm_vx_coh.1=-17.516;
bpm_vy_coh.1=-25.4476;
bpm_vx_coh.2=17.6689;
bpm_vy_coh.2=25.5029;
 ............................................... 
 minimal photon-photon center of mass energies for hadronic events (GeV) : 
hadron_cut.1=2;hadron_cut.2=5;hadron_cut.3=10;
 nb of hadronic events per bunch crossing due to the virtual photons in ee collisions : 
hadrons_ee.1=0.0243176;hadrons_ee.2=0.0133077;hadrons_ee.3=0.00799615;
 nb of hadronic evts per bx due to e-gamma collisions 
hadrons_eg.1=0.0215173;hadrons_eg.2=0.0115988;hadrons_eg.3=0.00640171;
 .. due to gamma-e collisions : 
hadrons_ge.1=0.0215231;hadrons_ge.2=0.0116084;hadrons_ge.3=0.00641734;
 ... due to gamma-gamma collisions : 
hadrons_gg.1=0.0267167;hadrons_gg.2=0.0135254;hadrons_gg.3=0.00608948;
 ... due to all types of collisions : 
hadrons_sum.1=0.0940747;hadrons_sum.2=0.0500403;hadrons_sum.3=0.0269047;
 ............................................... 

lumi_ee=7.82352e+33;
lumi_ee_high=7.82352e+33;
step   lumi total   lumi peak 
1  5.38121e+27  5.38121e+27
2  2.69061e+28  2.69061e+28
3  7.50204e+28  7.50204e+28
4  2.0686e+29  2.0686e+29
5  4.3936e+29  4.3936e+29
6  9.10216e+29  9.10216e+29
7  1.73655e+30  1.73655e+30
8  3.22667e+30  3.22667e+30
9  5.72213e+30  5.72213e+30
10  9.79064e+30  9.79064e+30
11  1.63166e+31  1.63166e+31
12  2.61199e+31  2.61199e+31
13  4.06408e+31  4.06408e+31
14  6.2666e+31  6.2666e+31
15  9.55456e+31  9.55456e+31
16  1.43884e+32  1.43884e+32
17  2.07464e+32  2.07464e+32
18  2.75127e+32  2.75127e+32
19  3.33771e+32  3.33771e+32
20  3.96875e+32  3.96875e+32
21  4.76816e+32  4.76816e+32
22  5.45871e+32  5.45871e+32
23  5.87058e+32  5.87058e+32
24  5.95539e+32  5.95539e+32
25  5.93482e+32  5.93482e+32
26  5.92926e+32  5.92926e+32
27  5.56526e+32  5.56526e+32
28  4.9566e+32  4.9566e+32
29  4.27153e+32  4.27153e+32
30  3.57061e+32  3.57061e+32
31  2.8589e+32  2.8589e+32
32  2.20524e+32  2.20524e+32
33  1.63996e+32  1.63996e+32
34  1.1533e+32  1.1533e+32
35  7.66383e+31  7.66383e+31
36  4.78945e+31  4.78945e+31
37  2.91985e+31  2.91985e+31
38  1.69557e+31  1.69557e+31
39  9.57492e+30  9.57492e+30
40  4.81413e+30  4.81413e+30
41  2.34637e+30  2.34637e+30
42  1.09555e+30  1.09555e+30
43  4.00584e+29  4.00584e+29
44  1.483e+29  1.483e+29
45  4.87475e+28  4.87475e+28
46  1.97839e+28  1.97839e+28
47  5.69775e+27  5.69775e+27
48  1.1079e+27  1.1079e+27
49  3.16542e+26  3.16542e+26
                                         
 *********************************************************************** 
 ------------- other information  ------------ 
             
 initial pairs are saved on file : pairs0.dat
 pairs are saved on file : pairs.dat
 jets are saved on file : minijet.dat
99799 particles are saved on file : beam1.dat
99816 particles are saved on file : beam2.dat
 coherent particles of beam1 are saved on file : coh1.dat
 coherent particles of beam2 are saved on file : coh2.dat
 trident particles of beam1 are saved on file : tri1.dat
 trident particles of beam2 are saved on file : tri2.dat
