****************************************************** 
* guineapig++ Version 1.2.2
* Program written by Daniel Schulte at DESY and CERN 
* object oriented by Guy Le Meur at LAL-Orsay 
* contributions from C. Rimbault at LAL-Orsay 
* B. Dalena, J. Esberg and J. Snuverink at CERN
*
* Compiled with FFTW:  FFTW3 
**************************************************** 

                                         
 *********************************************************************** 
 -------------  beam parameter 1 ------------ 
             
 energy : 125 GeV ; particles : 6.25e+09
  sigma_x  : 210.12 nm ;  sigma_y : 3.13228 nm ; sigma_z : 100 micrometers 
 emitt_x : 0.9 emitt_y : 0.02  (mm.mrad) 
 beta_x : 12000 beta_y : 120 (micrometers) 
 offset_x : 5 nm ; offset_y : 0.2 nm ; offset_z : 0 micrometers 
 waist_x : 0 waist_y : 0 (micrometers) 
 angle_x : 0 angle_y : 0 angle_phi : 0 (radians) 
 type of distribution charge :  dist_x : 0 dist_z : 0
 initial polarization (ONLY FOR bmt_precession = 1 and internally generated beam) : polar_x = 0 polar_y = 0 polar_z = -0.8
                                         
 *********************************************************************** 
 -------------  beam parameter 2 ------------ 
             
 energy : 125 GeV ; particles : 6.25e+09
  sigma_x  : 210.12 nm ;  sigma_y : 3.13228 nm ; sigma_z : 100 micrometers 
 emitt_x : 0.9 emitt_y : 0.02  (mm.mrad) 
 beta_x : 12000 beta_y : 120 (micrometers) 
 offset_x : -5 nm ; offset_y : -0.2 nm ; offset_z : -0 micrometers 
 waist_x : 0 waist_y : 0 (micrometers) 
 angle_x : 0 angle_y : 0 angle_phi : 0 (radians) 
 type of distribution charge :  dist_x : 0 dist_z : 0
 initial polarization (ONLY FOR bmt_precession = 1 and internally generated beam) : polar_x = 0 polar_y = 0 polar_z = 0
                                         
 *********************************************************************** 
 ------------- SWITCHES :  ------------ 
             
charge_sign = -1
bmt_precession = 1
ST_spin_flip = 0
do_bds_spin_rotation = 0
automatic_grid_sizing = 0
integration_method = 2 force_symmetric = 0
rndm_load = 0rndm_save = 1 rndm_seed = 286937
do_photons.1 = 1 do_photons.2 = 1
write_photons = 1
do_comp = 0 do_prod = 0
electron_ratio = 1
compt_x_min = 1 compt_emax = 100 GeV ; compt_scale = 1
do_lumi = 1num_lumi = 100000 lumi_p = 1e-29
do_cross = 0 do_isr = 0 do_espread = 1
photon_ratio = 1
do_hadrons = 1 store_hadrons = 0 hadron_ratio = 100000
do_jets = 1 store_jets = 0
do_pairs = 1 load_events = 0
track_pairs = 1 pair_step = 1
store_pairs = 1
bhabha_scal = 1e-29 bhabha_ecmload = 500 GeV 
do_muons = 0 track_muons = 0 store_muons = 0
muon_ratio = 1 muon_scale = 1 muon_ecut = 0.105
do_coherent = 1
do_trident = 0
emin = 0
grids = 7
pair_ecut = 0 GeV 
pair_ratio = 1
bhabha_ratio = 1
pair_q2 = 1
beam_pair = 0
jet_ratio = 100000
jet_ptmin = 2
jet_pythia = 0
jet_log = 1
beam_size = 1 beam_size_scale = 1 ext_field = 0
espread.1 = 0.003 which_espread.1 = 1 espread.2 = 0.003 which_espread.2 = 1
f_rep = 120 n_b = 133
                                         
 *********************************************************************** 
 ------------- grid parameters ------------ 
             
n_x = 128 n_y = 640
n_z = 25 n_t = 1
n_m.1 = 100000 n_m.2 = 100000
cut_x = 2521.44 nm ; cut_y = 200.466 nm ; cut_z = 310 micrometers 

 ...................................................... 
 relative amount of interacting particles that were outside the grid during one time step : 
beam 1 : miss = 0  beam 2 : miss = 0
 number of interacting part. that were outside the grid during one time step : 
out.1=0;out.2=0;
                                         
 *********************************************************************** 
 ------------- beam1 ------------ 
             
 ---------- particle beam : 
 total number of coherent particles is 0 with 0 GeV 
 number of tracked macroparticles : 99789
average energy loss of the beam particles (GeV) : de = 4.08604
 ---photon statistics : 
 initial : 
 initial average photon energy (GeV) phot-e1 : 3.07127
 initial number of phot. per tracked macropart.1 : 1.33041
 final : 
 final average photon energy (GeV) phot-e1 : 3.07127
 final number of phot. per tracked macropart.1 : 1.33041

phot-e1=3.07127;n_phot1=1.33041;
de1=4.08604;
                                         
 *********************************************************************** 
 ------------- beam2 ------------ 
             
 ---------- particle beam : 
 total number of coherent particles is 0 with 0 GeV 
 number of tracked macroparticles : 99788
average energy loss of the beam particles (GeV) : de = 4.12775
 ---photon statistics : 
 initial : 
 initial average photon energy (GeV) phot-e2 : 3.09318
 initial number of phot. per tracked macropart.2 : 1.33447
 final : 
 final average photon energy (GeV) phot-e2 : 3.09318
 final number of phot. per tracked macropart.2 : 1.33447

phot-e2=3.09318;n_phot2=1.33447;
de2=4.12775;
                                         
 *********************************************************************** 
 ------------- coherent particles results ------------ 
             
coherent.sum=0;
coherent.sumeng=0;
coherent.upsmax=1.15043e-06;
coherent.probmax=4.01263e-13;
coherent.count=0;
coherent.total_energy=0;
                                         
 *********************************************************************** 
 -------------  results for pairs  ------------ 
             
nb of pairs per bunch crossing : n_pairs = 44606 total energy e_pairs = 54692.3 GeV 

 Breit-Wheeler process : n_BW = 1086.45 e_BW = 610.462 GeV 
 Bethe-Heitler process : n_BH = 25865 e_BH = 39658.1 GeV 
 Landau-Lifschitz process : n_LL = 17687.7 e_LL = 15284.6 GeV 

 total nb (and total energy, in GeV) of the particles due to the 3 processes : 
n.1 = 22329 b.1 = 27598.1
n.2 = 22310.2 b.2 = 27955.1

 nb of particles (and energy in GeV) due to thr 3 previous processes with a transverse momentum of more than 20 MeV and an angle with respect to the beam axis of more than 150 mrad : 
n_pt=13.9968;e_pt=1.5557;
n_pairs=44606;e_pairs=54692.3;
                                         
 *********************************************************************** 
 ------------- jets results ------------ 
             
 nb of minijet evts per bx due to the direct process : jets0 = 0.00132731
nb of minijet evts per bx due to the once resolved process : jets1 = 0.00098847
nb of minijet evts per bx due to the twice resolved process : jets2 = 0.00252109
                                         
 *********************************************************************** 
 ------------- general results ------------ 
             
lumi_fine = 7.77333e+33 m**(-2) (from charge densities) 
lumi_ee = 7.84732e+33 m**(-2) (from beam particles collisions)
lumi_ee_high = 7.84732e+33 1/m2 (per bunch cross. above energy ecm_min)
lumi_pp = 3.92366e+33 m**(-2) 
lumi_eg = 3.50977e+33 m**(-2) (e - gamma) 
lumi_ge = 3.50727e+33 m**(-2) ( gamma - e) 
lumi_gg = 1.9702e+33 m**(-2) (gamma - gamma) 
lumi_gg_high = 1.9702e+33 1/m2 (gamma - gamma, with c.o.m energy more than gg_cut) 
lumi[0][0] = 0
lumi[0][1] = 1.25243e+38
lumi[0][2] = 5.60159e+37
lumi[1][0] = 0
lumi[1][1] = 0
lumi[1][2] = 0
lumi[2][0] = 0
lumi[2][1] = 5.59761e+37
lumi[2][2] = 3.14444e+37
upsmax= 0.273712 (maximal value of the beamstrahlung paramater that occured) 
E_cm = 246.637 E_cm_var = 7.16742
 ............................................... 
 average and RMS angles (x or y) of the particles of each beam after the interaction (microradians) : 
bpm_vx.1=-16.1907;bpm_sig_vx.1=405.602;
bpm_vy.1=-27.6747;bpm_sig_vy.1=70.4691;
bpm_vx.2=16.1684;bpm_sig_vx.2=409.211;
bpm_vy.2=27.712;bpm_sig_vy.2=70.1257;
 average and RMS angles (x or y) including coherent particles of each beam after the interaction (microradians) : 
bpm_vx_coh.1=-16.1907;
bpm_vy_coh.1=-27.6747;
bpm_vx_coh.2=16.1684;
bpm_vy_coh.2=27.712;
 ............................................... 
 minimal photon-photon center of mass energies for hadronic events (GeV) : 
hadron_cut.1=2;hadron_cut.2=5;hadron_cut.3=10;
 nb of hadronic events per bunch crossing due to the virtual photons in ee collisions : 
hadrons_ee.1=0.0242785;hadrons_ee.2=0.0132684;hadrons_ee.3=0.00795997;
 nb of hadronic evts per bx due to e-gamma collisions 
hadrons_eg.1=0.0212924;hadrons_eg.2=0.0114928;hadrons_eg.3=0.00633671;
 .. due to gamma-e collisions : 
hadrons_ge.1=0.0211404;hadrons_ge.2=0.0113574;hadrons_ge.3=0.00625032;
 ... due to gamma-gamma collisions : 
hadrons_gg.1=0.0261615;hadrons_gg.2=0.0132811;hadrons_gg.3=0.00599649;
 ... due to all types of collisions : 
hadrons_sum.1=0.0928729;hadrons_sum.2=0.0493997;hadrons_sum.3=0.0265435;
 ............................................... 

lumi_ee=7.84732e+33;
lumi_ee_high=7.84732e+33;
step   lumi total   lumi peak 
1  7.12219e+27  7.12219e+27
2  3.22873e+28  3.22873e+28
3  7.43873e+28  7.43873e+28
4  2.03378e+29  2.03378e+29
5  4.5772e+29  4.5772e+29
6  9.52949e+29  9.52949e+29
7  1.7864e+30  1.7864e+30
8  3.27842e+30  3.27842e+30
9  5.81408e+30  5.81408e+30
10  9.93261e+30  9.93261e+30
11  1.63163e+31  1.63163e+31
12  2.59824e+31  2.59824e+31
13  4.06706e+31  4.06706e+31
14  6.25006e+31  6.25006e+31
15  9.55434e+31  9.55434e+31
16  1.441e+32  1.441e+32
17  2.07747e+32  2.07747e+32
18  2.71929e+32  2.71929e+32
19  3.31687e+32  3.31687e+32
20  3.94781e+32  3.94781e+32
21  4.72481e+32  4.72481e+32
22  5.4597e+32  5.4597e+32
23  5.89198e+32  5.89198e+32
24  5.9938e+32  5.9938e+32
25  5.96652e+32  5.96652e+32
26  5.89035e+32  5.89035e+32
27  5.55088e+32  5.55088e+32
28  4.9536e+32  4.9536e+32
29  4.30192e+32  4.30192e+32
30  3.642e+32  3.642e+32
31  2.91763e+32  2.91763e+32
32  2.26125e+32  2.26125e+32
33  1.68668e+32  1.68668e+32
34  1.17189e+32  1.17189e+32
35  7.84707e+31  7.84707e+31
36  4.96749e+31  4.96749e+31
37  2.96225e+31  2.96225e+31
38  1.66973e+31  1.66973e+31
39  9.30174e+30  9.30174e+30
40  4.66488e+30  4.66488e+30
41  2.29714e+30  2.29714e+30
42  9.85711e+29  9.85711e+29
43  3.41074e+29  3.41074e+29
44  1.16962e+29  1.16962e+29
45  3.33952e+28  3.33952e+28
46  1.31365e+28  1.31365e+28
47  4.74813e+27  4.74813e+27
48  1.58271e+27  1.58271e+27
49  3.16542e+26  3.16542e+26
                                         
 *********************************************************************** 
 ------------- other information  ------------ 
             
 initial pairs are saved on file : pairs0.dat
 pairs are saved on file : pairs.dat
 jets are saved on file : minijet.dat
99789 particles are saved on file : beam1.dat
99788 particles are saved on file : beam2.dat
 coherent particles of beam1 are saved on file : coh1.dat
 coherent particles of beam2 are saved on file : coh2.dat
 trident particles of beam1 are saved on file : tri1.dat
 trident particles of beam2 are saved on file : tri2.dat
