****************************************************** 
* guineapig++ Version 1.2.2
* Program written by Daniel Schulte at DESY and CERN 
* object oriented by Guy Le Meur at LAL-Orsay 
* contributions from C. Rimbault at LAL-Orsay 
* B. Dalena, J. Esberg and J. Snuverink at CERN
*
* Compiled with FFTW:  FFTW3 
**************************************************** 

                                         
 *********************************************************************** 
 -------------  beam parameter 1 ------------ 
             
 energy : 125 GeV ; particles : 6.25e+09
  sigma_x  : 210.12 nm ;  sigma_y : 3.13228 nm ; sigma_z : 100 micrometers 
 emitt_x : 0.9 emitt_y : 0.02  (mm.mrad) 
 beta_x : 12000 beta_y : 120 (micrometers) 
 offset_x : 5 nm ; offset_y : 0.2 nm ; offset_z : 0 micrometers 
 waist_x : 0 waist_y : 0 (micrometers) 
 angle_x : 0 angle_y : 0 angle_phi : 0 (radians) 
 type of distribution charge :  dist_x : 0 dist_z : 0
 initial polarization (ONLY FOR bmt_precession = 1 and internally generated beam) : polar_x = 0 polar_y = 0 polar_z = -0.8
                                         
 *********************************************************************** 
 -------------  beam parameter 2 ------------ 
             
 energy : 125 GeV ; particles : 6.25e+09
  sigma_x  : 210.12 nm ;  sigma_y : 3.13228 nm ; sigma_z : 100 micrometers 
 emitt_x : 0.9 emitt_y : 0.02  (mm.mrad) 
 beta_x : 12000 beta_y : 120 (micrometers) 
 offset_x : -5 nm ; offset_y : -0.2 nm ; offset_z : -0 micrometers 
 waist_x : 0 waist_y : 0 (micrometers) 
 angle_x : 0 angle_y : 0 angle_phi : 0 (radians) 
 type of distribution charge :  dist_x : 0 dist_z : 0
 initial polarization (ONLY FOR bmt_precession = 1 and internally generated beam) : polar_x = 0 polar_y = 0 polar_z = 0
                                         
 *********************************************************************** 
 ------------- SWITCHES :  ------------ 
             
charge_sign = -1
bmt_precession = 1
ST_spin_flip = 0
do_bds_spin_rotation = 0
automatic_grid_sizing = 0
integration_method = 2 force_symmetric = 0
rndm_load = 0rndm_save = 1 rndm_seed = 629701
do_photons.1 = 1 do_photons.2 = 1
write_photons = 1
do_comp = 0 do_prod = 0
electron_ratio = 1
compt_x_min = 1 compt_emax = 100 GeV ; compt_scale = 1
do_lumi = 1num_lumi = 100000 lumi_p = 1e-29
do_cross = 0 do_isr = 0 do_espread = 1
photon_ratio = 1
do_hadrons = 1 store_hadrons = 0 hadron_ratio = 100000
do_jets = 1 store_jets = 0
do_pairs = 1 load_events = 0
track_pairs = 1 pair_step = 1
store_pairs = 1
bhabha_scal = 1e-29 bhabha_ecmload = 500 GeV 
do_muons = 0 track_muons = 0 store_muons = 0
muon_ratio = 1 muon_scale = 1 muon_ecut = 0.105
do_coherent = 1
do_trident = 0
emin = 0
grids = 7
pair_ecut = 0 GeV 
pair_ratio = 1
bhabha_ratio = 1
pair_q2 = 1
beam_pair = 0
jet_ratio = 100000
jet_ptmin = 2
jet_pythia = 0
jet_log = 1
beam_size = 1 beam_size_scale = 1 ext_field = 0
espread.1 = 0.003 which_espread.1 = 1 espread.2 = 0.003 which_espread.2 = 1
f_rep = 120 n_b = 133
                                         
 *********************************************************************** 
 ------------- grid parameters ------------ 
             
n_x = 128 n_y = 640
n_z = 25 n_t = 1
n_m.1 = 100000 n_m.2 = 100000
cut_x = 2521.44 nm ; cut_y = 200.466 nm ; cut_z = 310 micrometers 

 ...................................................... 
 relative amount of interacting particles that were outside the grid during one time step : 
beam 1 : miss = 0  beam 2 : miss = 0
 number of interacting part. that were outside the grid during one time step : 
out.1=0;out.2=0;
                                         
 *********************************************************************** 
 ------------- beam1 ------------ 
             
 ---------- particle beam : 
 total number of coherent particles is 0 with 0 GeV 
 number of tracked macroparticles : 99788
average energy loss of the beam particles (GeV) : de = 4.18409
 ---photon statistics : 
 initial : 
 initial average photon energy (GeV) phot-e1 : 3.12105
 initial number of phot. per tracked macropart.1 : 1.3406
 final : 
 final average photon energy (GeV) phot-e1 : 3.12105
 final number of phot. per tracked macropart.1 : 1.3406

phot-e1=3.12105;n_phot1=1.3406;
de1=4.18409;
                                         
 *********************************************************************** 
 ------------- beam2 ------------ 
             
 ---------- particle beam : 
 total number of coherent particles is 0 with 0 GeV 
 number of tracked macroparticles : 99815
average energy loss of the beam particles (GeV) : de = 4.155
 ---photon statistics : 
 initial : 
 initial average photon energy (GeV) phot-e2 : 3.09099
 initial number of phot. per tracked macropart.2 : 1.34423
 final : 
 final average photon energy (GeV) phot-e2 : 3.09099
 final number of phot. per tracked macropart.2 : 1.34423

phot-e2=3.09099;n_phot2=1.34423;
de2=4.155;
                                         
 *********************************************************************** 
 ------------- coherent particles results ------------ 
             
coherent.sum=0;
coherent.sumeng=0;
coherent.upsmax=1.12255e-06;
coherent.probmax=2.41316e-12;
coherent.count=0;
coherent.total_energy=0;
                                         
 *********************************************************************** 
 -------------  results for pairs  ------------ 
             
nb of pairs per bunch crossing : n_pairs = 43994 total energy e_pairs = 55195.6 GeV 

 Breit-Wheeler process : n_BW = 1100.79 e_BW = 675.437 GeV 
 Bethe-Heitler process : n_BH = 25376.8 e_BH = 39556.6 GeV 
 Landau-Lifschitz process : n_LL = 17390.3 e_LL = 15012.5 GeV 

 total nb (and total energy, in GeV) of the particles due to the 3 processes : 
n.1 = 22012.8 b.1 = 27664.6
n.2 = 21855 b.2 = 27579.9

 nb of particles (and energy in GeV) due to thr 3 previous processes with a transverse momentum of more than 20 MeV and an angle with respect to the beam axis of more than 150 mrad : 
n_pt=13.7247;e_pt=1.52847;
n_pairs=43994;e_pairs=55195.6;
                                         
 *********************************************************************** 
 ------------- jets results ------------ 
             
 nb of minijet evts per bx due to the direct process : jets0 = 0.00130883
nb of minijet evts per bx due to the once resolved process : jets1 = 0.00097694
nb of minijet evts per bx due to the twice resolved process : jets2 = 0.00249901
                                         
 *********************************************************************** 
 ------------- general results ------------ 
             
lumi_fine = 7.61433e+33 m**(-2) (from charge densities) 
lumi_ee = 7.68628e+33 m**(-2) (from beam particles collisions)
lumi_ee_high = 7.68628e+33 1/m2 (per bunch cross. above energy ecm_min)
lumi_pp = 3.84314e+33 m**(-2) 
lumi_eg = 3.44109e+33 m**(-2) (e - gamma) 
lumi_ge = 3.45128e+33 m**(-2) ( gamma - e) 
lumi_gg = 1.95276e+33 m**(-2) (gamma - gamma) 
lumi_gg_high = 1.95276e+33 1/m2 (gamma - gamma, with c.o.m energy more than gg_cut) 
lumi[0][0] = 0
lumi[0][1] = 1.22673e+38
lumi[0][2] = 5.49199e+37
lumi[1][0] = 0
lumi[1][1] = 0
lumi[1][2] = 0
lumi[2][0] = 0
lumi[2][1] = 5.50824e+37
lumi[2][2] = 3.11661e+37
upsmax= 0.272853 (maximal value of the beamstrahlung paramater that occured) 
E_cm = 246.64 E_cm_var = 7.19596
 ............................................... 
 average and RMS angles (x or y) of the particles of each beam after the interaction (microradians) : 
bpm_vx.1=-17.3215;bpm_sig_vx.1=405.674;
bpm_vy.1=-26.3133;bpm_sig_vy.1=73.0936;
bpm_vx.2=17.306;bpm_sig_vx.2=408.323;
bpm_vy.2=26.5868;bpm_sig_vy.2=75.1957;
 average and RMS angles (x or y) including coherent particles of each beam after the interaction (microradians) : 
bpm_vx_coh.1=-17.3215;
bpm_vy_coh.1=-26.3133;
bpm_vx_coh.2=17.306;
bpm_vy_coh.2=26.5868;
 ............................................... 
 minimal photon-photon center of mass energies for hadronic events (GeV) : 
hadron_cut.1=2;hadron_cut.2=5;hadron_cut.3=10;
 nb of hadronic events per bunch crossing due to the virtual photons in ee collisions : 
hadrons_ee.1=0.0238405;hadrons_ee.2=0.0130061;hadrons_ee.3=0.0077864;
 nb of hadronic evts per bx due to e-gamma collisions 
hadrons_eg.1=0.0210096;hadrons_eg.2=0.0113329;hadrons_eg.3=0.00625766;
 .. due to gamma-e collisions : 
hadrons_ge.1=0.0209127;hadrons_ge.2=0.0112455;hadrons_ge.3=0.00618798;
 ... due to gamma-gamma collisions : 
hadrons_gg.1=0.025941;hadrons_gg.2=0.0131779;hadrons_gg.3=0.00595894;
 ... due to all types of collisions : 
hadrons_sum.1=0.0917039;hadrons_sum.2=0.0487624;hadrons_sum.3=0.026191;
 ............................................... 

lumi_ee=7.68628e+33;
lumi_ee_high=7.68628e+33;
step   lumi total   lumi peak 
1  8.23009e+27  8.23009e+27
2  2.19997e+28  2.19997e+28
3  7.85024e+28  7.85024e+28
4  1.90875e+29  1.90875e+29
5  4.47907e+29  4.47907e+29
6  8.69699e+29  8.69699e+29
7  1.70648e+30  1.70648e+30
8  3.15513e+30  3.15513e+30
9  5.70883e+30  5.70883e+30
10  9.7669e+30  9.7669e+30
11  1.60188e+31  1.60188e+31
12  2.58262e+31  2.58262e+31
13  4.03706e+31  4.03706e+31
14  6.23174e+31  6.23174e+31
15  9.52077e+31  9.52077e+31
16  1.43946e+32  1.43946e+32
17  2.08626e+32  2.08626e+32
18  2.75103e+32  2.75103e+32
19  3.35857e+32  3.35857e+32
20  3.97389e+32  3.97389e+32
21  4.7578e+32  4.7578e+32
22  5.4965e+32  5.4965e+32
23  5.91066e+32  5.91066e+32
24  5.96838e+32  5.96838e+32
25  5.90858e+32  5.90858e+32
26  5.81504e+32  5.81504e+32
27  5.47159e+32  5.47159e+32
28  4.8773e+32  4.8773e+32
29  4.13878e+32  4.13878e+32
30  3.44271e+32  3.44271e+32
31  2.71849e+32  2.71849e+32
32  2.06918e+32  2.06918e+32
33  1.5012e+32  1.5012e+32
34  1.00242e+32  1.00242e+32
35  6.52776e+31  6.52776e+31
36  4.02652e+31  4.02652e+31
37  2.34257e+31  2.34257e+31
38  1.30399e+31  1.30399e+31
39  7.06917e+30  7.06917e+30
40  3.63374e+30  3.63374e+30
41  1.82407e+30  1.82407e+30
42  7.96419e+29  7.96419e+29
43  2.92485e+29  2.92485e+29
44  1.10315e+29  1.10315e+29
45  4.1467e+28  4.1467e+28
46  1.50357e+28  1.50357e+28
47  4.9064e+27  4.9064e+27
48  1.26617e+27  1.26617e+27
49  0  0
                                         
 *********************************************************************** 
 ------------- other information  ------------ 
             
 initial pairs are saved on file : pairs0.dat
 pairs are saved on file : pairs.dat
 jets are saved on file : minijet.dat
99788 particles are saved on file : beam1.dat
99815 particles are saved on file : beam2.dat
 coherent particles of beam1 are saved on file : coh1.dat
 coherent particles of beam2 are saved on file : coh2.dat
 trident particles of beam1 are saved on file : tri1.dat
 trident particles of beam2 are saved on file : tri2.dat
