****************************************************** 
* guineapig++ Version 1.2.2
* Program written by Daniel Schulte at DESY and CERN 
* object oriented by Guy Le Meur at LAL-Orsay 
* contributions from C. Rimbault at LAL-Orsay 
* B. Dalena, J. Esberg and J. Snuverink at CERN
*
* Compiled with FFTW:  FFTW3 
**************************************************** 

                                         
 *********************************************************************** 
 -------------  beam parameter 1 ------------ 
             
 energy : 125 GeV ; particles : 6.25e+09
  sigma_x  : 210.12 nm ;  sigma_y : 3.13228 nm ; sigma_z : 100 micrometers 
 emitt_x : 0.9 emitt_y : 0.02  (mm.mrad) 
 beta_x : 12000 beta_y : 120 (micrometers) 
 offset_x : 5 nm ; offset_y : 0.2 nm ; offset_z : 0 micrometers 
 waist_x : 0 waist_y : 0 (micrometers) 
 angle_x : 0 angle_y : 0 angle_phi : 0 (radians) 
 type of distribution charge :  dist_x : 0 dist_z : 0
 initial polarization (ONLY FOR bmt_precession = 1 and internally generated beam) : polar_x = 0 polar_y = 0 polar_z = -0.8
                                         
 *********************************************************************** 
 -------------  beam parameter 2 ------------ 
             
 energy : 125 GeV ; particles : 6.25e+09
  sigma_x  : 210.12 nm ;  sigma_y : 3.13228 nm ; sigma_z : 100 micrometers 
 emitt_x : 0.9 emitt_y : 0.02  (mm.mrad) 
 beta_x : 12000 beta_y : 120 (micrometers) 
 offset_x : -5 nm ; offset_y : -0.2 nm ; offset_z : -0 micrometers 
 waist_x : 0 waist_y : 0 (micrometers) 
 angle_x : 0 angle_y : 0 angle_phi : 0 (radians) 
 type of distribution charge :  dist_x : 0 dist_z : 0
 initial polarization (ONLY FOR bmt_precession = 1 and internally generated beam) : polar_x = 0 polar_y = 0 polar_z = 0
                                         
 *********************************************************************** 
 ------------- SWITCHES :  ------------ 
             
charge_sign = -1
bmt_precession = 1
ST_spin_flip = 0
do_bds_spin_rotation = 0
automatic_grid_sizing = 0
integration_method = 2 force_symmetric = 0
rndm_load = 0rndm_save = 1 rndm_seed = 481096
do_photons.1 = 1 do_photons.2 = 1
write_photons = 1
do_comp = 0 do_prod = 0
electron_ratio = 1
compt_x_min = 1 compt_emax = 100 GeV ; compt_scale = 1
do_lumi = 1num_lumi = 100000 lumi_p = 1e-29
do_cross = 0 do_isr = 0 do_espread = 1
photon_ratio = 1
do_hadrons = 1 store_hadrons = 0 hadron_ratio = 100000
do_jets = 1 store_jets = 0
do_pairs = 1 load_events = 0
track_pairs = 1 pair_step = 1
store_pairs = 1
bhabha_scal = 1e-29 bhabha_ecmload = 500 GeV 
do_muons = 0 track_muons = 0 store_muons = 0
muon_ratio = 1 muon_scale = 1 muon_ecut = 0.105
do_coherent = 1
do_trident = 0
emin = 0
grids = 7
pair_ecut = 0 GeV 
pair_ratio = 1
bhabha_ratio = 1
pair_q2 = 1
beam_pair = 0
jet_ratio = 100000
jet_ptmin = 2
jet_pythia = 0
jet_log = 1
beam_size = 1 beam_size_scale = 1 ext_field = 0
espread.1 = 0.003 which_espread.1 = 1 espread.2 = 0.003 which_espread.2 = 1
f_rep = 120 n_b = 133
                                         
 *********************************************************************** 
 ------------- grid parameters ------------ 
             
n_x = 128 n_y = 640
n_z = 25 n_t = 1
n_m.1 = 100000 n_m.2 = 100000
cut_x = 2521.44 nm ; cut_y = 200.466 nm ; cut_z = 310 micrometers 

 ...................................................... 
 relative amount of interacting particles that were outside the grid during one time step : 
beam 1 : miss = 0  beam 2 : miss = 0
 number of interacting part. that were outside the grid during one time step : 
out.1=0;out.2=0;
                                         
 *********************************************************************** 
 ------------- beam1 ------------ 
             
 ---------- particle beam : 
 total number of coherent particles is 0 with 0 GeV 
 number of tracked macroparticles : 99792
average energy loss of the beam particles (GeV) : de = 4.11059
 ---photon statistics : 
 initial : 
 initial average photon energy (GeV) phot-e1 : 3.07806
 initial number of phot. per tracked macropart.1 : 1.33545
 final : 
 final average photon energy (GeV) phot-e1 : 3.07806
 final number of phot. per tracked macropart.1 : 1.33545

phot-e1=3.07806;n_phot1=1.33545;
de1=4.11059;
                                         
 *********************************************************************** 
 ------------- beam2 ------------ 
             
 ---------- particle beam : 
 total number of coherent particles is 0 with 0 GeV 
 number of tracked macroparticles : 99810
average energy loss of the beam particles (GeV) : de = 4.09149
 ---photon statistics : 
 initial : 
 initial average photon energy (GeV) phot-e2 : 3.0784
 initial number of phot. per tracked macropart.2 : 1.3291
 final : 
 final average photon energy (GeV) phot-e2 : 3.0784
 final number of phot. per tracked macropart.2 : 1.3291

phot-e2=3.0784;n_phot2=1.3291;
de2=4.09149;
                                         
 *********************************************************************** 
 ------------- coherent particles results ------------ 
             
coherent.sum=0;
coherent.sumeng=0;
coherent.upsmax=1.07293e-06;
coherent.probmax=1.65441e-11;
coherent.count=0;
coherent.total_energy=0;
                                         
 *********************************************************************** 
 -------------  results for pairs  ------------ 
             
nb of pairs per bunch crossing : n_pairs = 44720 total energy e_pairs = 56340.8 GeV 

 Breit-Wheeler process : n_BW = 1122.01 e_BW = 629.41 GeV 
 Bethe-Heitler process : n_BH = 25810.5 e_BH = 39916.6 GeV 
 Landau-Lifschitz process : n_LL = 17739.2 e_LL = 15431 GeV 

 total nb (and total energy, in GeV) of the particles due to the 3 processes : 
n.1 = 22306.4 b.1 = 28129.1
n.2 = 22365.4 b.2 = 27847.9

 nb of particles (and energy in GeV) due to thr 3 previous processes with a transverse momentum of more than 20 MeV and an angle with respect to the beam axis of more than 150 mrad : 
n_pt=13.9467;e_pt=1.55442;
n_pairs=44720;e_pairs=56340.8;
                                         
 *********************************************************************** 
 ------------- jets results ------------ 
             
 nb of minijet evts per bx due to the direct process : jets0 = 0.00132922
nb of minijet evts per bx due to the once resolved process : jets1 = 0.000989067
nb of minijet evts per bx due to the twice resolved process : jets2 = 0.00252365
                                         
 *********************************************************************** 
 ------------- general results ------------ 
             
lumi_fine = 7.78355e+33 m**(-2) (from charge densities) 
lumi_ee = 7.86276e+33 m**(-2) (from beam particles collisions)
lumi_ee_high = 7.86276e+33 1/m2 (per bunch cross. above energy ecm_min)
lumi_pp = 3.93138e+33 m**(-2) 
lumi_eg = 3.4983e+33 m**(-2) (e - gamma) 
lumi_ge = 3.49997e+33 m**(-2) ( gamma - e) 
lumi_gg = 1.97171e+33 m**(-2) (gamma - gamma) 
lumi_gg_high = 1.97171e+33 1/m2 (gamma - gamma, with c.o.m energy more than gg_cut) 
lumi[0][0] = 0
lumi[0][1] = 1.2549e+38
lumi[0][2] = 5.58329e+37
lumi[1][0] = 0
lumi[1][1] = 0
lumi[1][2] = 0
lumi[2][0] = 0
lumi[2][1] = 5.58595e+37
lumi[2][2] = 3.14685e+37
upsmax= 0.260289 (maximal value of the beamstrahlung paramater that occured) 
E_cm = 246.63 E_cm_var = 7.15942
 ............................................... 
 average and RMS angles (x or y) of the particles of each beam after the interaction (microradians) : 
bpm_vx.1=-18.0021;bpm_sig_vx.1=407.744;
bpm_vy.1=-26.2842;bpm_sig_vy.1=68.7059;
bpm_vx.2=17.8676;bpm_sig_vx.2=409.124;
bpm_vy.2=26.1925;bpm_sig_vy.2=70.5685;
 average and RMS angles (x or y) including coherent particles of each beam after the interaction (microradians) : 
bpm_vx_coh.1=-18.0021;
bpm_vy_coh.1=-26.2842;
bpm_vx_coh.2=17.8676;
bpm_vy_coh.2=26.1925;
 ............................................... 
 minimal photon-photon center of mass energies for hadronic events (GeV) : 
hadron_cut.1=2;hadron_cut.2=5;hadron_cut.3=10;
 nb of hadronic events per bunch crossing due to the virtual photons in ee collisions : 
hadrons_ee.1=0.0243208;hadrons_ee.2=0.0132834;hadrons_ee.3=0.00796303;
 nb of hadronic evts per bx due to e-gamma collisions 
hadrons_eg.1=0.0212341;hadrons_eg.2=0.0114291;hadrons_eg.3=0.0062895;
 .. due to gamma-e collisions : 
hadrons_ge.1=0.0212384;hadrons_ge.2=0.0114698;hadrons_ge.3=0.00634371;
 ... due to gamma-gamma collisions : 
hadrons_gg.1=0.0262222;hadrons_gg.2=0.0132972;hadrons_gg.3=0.00598576;
 ... due to all types of collisions : 
hadrons_sum.1=0.0930156;hadrons_sum.2=0.0494795;hadrons_sum.3=0.026582;
 ............................................... 

lumi_ee=7.86276e+33;
lumi_ee_high=7.86276e+33;
step   lumi total   lumi peak 
1  4.9064e+27  4.9064e+27
2  2.50068e+28  2.50068e+28
3  7.7711e+28  7.7711e+28
4  1.89925e+29  1.89925e+29
5  4.27648e+29  4.27648e+29
6  9.18446e+29  9.18446e+29
7  1.73576e+30  1.73576e+30
8  3.27858e+30  3.27858e+30
9  5.7981e+30  5.7981e+30
10  9.8845e+30  9.8845e+30
11  1.63369e+31  1.63369e+31
12  2.63939e+31  2.63939e+31
13  4.13882e+31  4.13882e+31
14  6.31188e+31  6.31188e+31
15  9.64452e+31  9.64452e+31
16  1.45715e+32  1.45715e+32
17  2.10274e+32  2.10274e+32
18  2.74522e+32  2.74522e+32
19  3.32032e+32  3.32032e+32
20  3.94791e+32  3.94791e+32
21  4.74461e+32  4.74461e+32
22  5.49806e+32  5.49806e+32
23  5.90981e+32  5.90981e+32
24  5.97275e+32  5.97275e+32
25  5.92514e+32  5.92514e+32
26  5.87846e+32  5.87846e+32
27  5.5432e+32  5.5432e+32
28  4.96159e+32  4.96159e+32
29  4.30923e+32  4.30923e+32
30  3.61301e+32  3.61301e+32
31  2.88594e+32  2.88594e+32
32  2.27187e+32  2.27187e+32
33  1.69561e+32  1.69561e+32
34  1.18998e+32  1.18998e+32
35  8.03716e+31  8.03716e+31
36  5.15778e+31  5.15778e+31
37  3.06007e+31  3.06007e+31
38  1.79973e+31  1.79973e+31
39  9.76975e+30  9.76975e+30
40  4.90434e+30  4.90434e+30
41  2.49008e+30  2.49008e+30
42  1.109e+30  1.109e+30
43  4.24641e+29  4.24641e+29
44  1.50516e+29  1.50516e+29
45  5.28625e+28  5.28625e+28
46  1.93091e+28  1.93091e+28
47  6.80565e+27  6.80565e+27
48  2.21579e+27  2.21579e+27
49  1.58271e+26  1.58271e+26
                                         
 *********************************************************************** 
 ------------- other information  ------------ 
             
 initial pairs are saved on file : pairs0.dat
 pairs are saved on file : pairs.dat
 jets are saved on file : minijet.dat
99792 particles are saved on file : beam1.dat
99810 particles are saved on file : beam2.dat
 coherent particles of beam1 are saved on file : coh1.dat
 coherent particles of beam2 are saved on file : coh2.dat
 trident particles of beam1 are saved on file : tri1.dat
 trident particles of beam2 are saved on file : tri2.dat
